{
	"format_version": "1.8.0",
	"animations": {
		"animation.pidgey.ground_idle": {
			"loop": true,
			"bones": {
				"wing_right": {
					"rotation": [90, 87.5, 0],
					"position": [0, -0.5, -1]
				},
				"wing_right2": {
					"rotation": [0, -45, 0]
				},
				"wing_right3": {
					"rotation": [0, 45, 0]
				},
				"wing_left": {
					"rotation": [90, -87.5, 0],
					"position": [0, -0.5, -1]
				},
				"wing_left2": {
					"rotation": [0, 45, 0]
				},
				"wing_left3": {
					"rotation": [0, -45, 0]
				},
				"tail": {
					"rotation": [50, 0, 0]
				},
				"toe_inner_right": {
					"rotation": [0, -5, 0]
				},
				"toe_outer_right": {
					"rotation": [0, 5, 0]
				},
				"toe_inner_left": {
					"rotation": [0, 5, 0]
				},
				"toe_outer_left": {
					"rotation": [0, -5, 0]
				}
			}
		},
		"animation.pidgey.air_idle": {
			"loop": true,
			"bones": {
				"wing_left": {
					"rotation": [0, -5, -15]
				},
				"wing_left3": {
					"rotation": [0, -25, 0]
				},
				"tail": {
					"rotation": [40, 0, 0]
				},
				"wing_left2": {
					"rotation": [0, 10, 0]
				},
				"leg_right": {
					"rotation": [22.5, 0, 0]
				},
				"leg_right2": {
					"rotation": [-45, 0, 0]
				},
				"foot_right": {
					"rotation": [13, 0, 0]
				},
				"claw_back_right": {
					"rotation": [-45, 0, 0]
				},
				"toe_inner_right": {
					"rotation": [30, 0, 0]
				},
				"toe_outer_right": {
					"rotation": [30, 0, 0]
				},
				"claw_outer_right": {
					"rotation": [45, 0, 0]
				},
				"leg_left": {
					"rotation": [22.5, 0, 0]
				},
				"leg_left2": {
					"rotation": [-45, 0, 0]
				},
				"foot_left": {
					"rotation": [13, 0, 0]
				},
				"toe_back_left": {
					"rotation": [-45, 0, 0]
				},
				"toe_inner_left": {
					"rotation": [30, 0, 0]
				},
				"toe_outer_left": {
					"rotation": [30, 0, 0]
				},
				"body": {
					"rotation": [-10, 0, 0]
				},
				"wing_right": {
					"rotation": [0, 5, 15]
				},
				"wing_right3": {
					"rotation": [0, 25, 0]
				},
				"toe_back_right": {
					"rotation": [-45, 0, 0]
				},
				"claw_inner_right": {
					"rotation": [45, 0, 0]
				},
				"claw_back_left": {
					"rotation": [-45, 0, 0]
				},
				"claw_inner_left": {
					"rotation": [45, 0, 0]
				},
				"claw_outer_left": {
					"rotation": [45, 0, 0]
				},
				"wing_right2": {
					"rotation": [0, -10, 0]
				},
				"neck": {
					"rotation": [30, 0, 0]
				},
				"head": {
					"rotation": [-15, 0, 0]
				}
			}
		},
		"animation.pidgey.air_fly": {
			"loop": true,
			"bones": {
				"wing_left": {
					"rotation": [0.5, 0, -5]
				},
				"wing_left3": {
					"rotation": [0, -15, 0]
				},
				"torso": {
					"rotation": [2.5, 0, 0]
				},
				"tail": {
					"rotation": [7.5, 0, 0]
				},
				"wing_left2": {
					"rotation": [0, 0, 0]
				},
				"leg_right": {
					"rotation": [30, 0, 0],
					"position": [0, 0, 0]
				},
				"leg_right2": {
					"rotation": [-70, 0, 0]
				},
				"foot_right": {
					"rotation": [25, 0, 0]
				},
				"claw_back_right": {
					"rotation": [-45, 0, 0]
				},
				"toe_inner_right": {
					"rotation": [45, 0, 0]
				},
				"toe_outer_right": {
					"rotation": [45, 0, 0]
				},
				"claw_outer_right": {
					"rotation": [45, 0, 0]
				},
				"leg_left": {
					"rotation": [30, 0, 0]
				},
				"leg_left2": {
					"rotation": [-70, 0, 0]
				},
				"foot_left": {
					"rotation": [25, 0, 0]
				},
				"toe_back_left": {
					"rotation": [-60, 0, 0]
				},
				"toe_inner_left": {
					"rotation": [45, 0, 0]
				},
				"toe_outer_left": {
					"rotation": [45, 0, 0]
				},
				"body": {
					"rotation": [12.5, 0, 0]
				},
				"head": {
					"rotation": [-75, 0, 0]
				},
				"toe_back_right": {
					"rotation": [-60, 0, 0]
				},
				"claw_inner_right": {
					"rotation": [45, 0, 0]
				},
				"claw_back_left": {
					"rotation": [-45, 0, 0]
				},
				"claw_inner_left": {
					"rotation": [45, 0, 0]
				},
				"claw_outer_left": {
					"rotation": [45, 0, 0]
				},
				"wing_right": {
					"rotation": [0.5, 0, 5]
				},
				"wing_right3": {
					"rotation": [0, 15, 0]
				},
				"neck": {
					"rotation": [63, 0, 0]
				}
			}
		},
		"animation.pidgey.sleep": {
			"loop": true,
			"bones": {
				"torso": {
					"rotation": [12.5, 0, 0],
					"position": [0, -1.75, 0]
				},
				"crest": {
					"rotation": [7.5, 0, 0]
				},
				"eyelid_right": {
					"position": [-0.1, 0, -0.1]
				},
				"eyelid_left": {
					"position": [0.1, 0, -0.1]
				},
				"wing_right": {
					"rotation": [90, 87.5, 0],
					"position": [0, -0.5, -1]
				},
				"wing_right2": {
					"rotation": [0, -45, 0]
				},
				"wing_right3": {
					"rotation": [0, 45, 0]
				},
				"wing_left": {
					"rotation": [90, -87.5, 0],
					"position": [0, -0.5, -1]
				},
				"wing_left2": {
					"rotation": [0, 45, 0]
				},
				"wing_left3": {
					"rotation": [0, -45, 0]
				},
				"tail": {
					"rotation": [50, 0, 0]
				},
				"toe_inner_right": {
					"rotation": [0, 5, 0]
				},
				"toe_outer_right": {
					"rotation": [0, -5, 0]
				},
				"toe_inner_left": {
					"rotation": [0, -5, 0]
				},
				"toe_outer_left": {
					"rotation": [0, 5, 0]
				}
			}
		},
		"animation.pidgey.blink": {
			"animation_length": 0.16667,
			"bones": {
				"eyelid_right": {
					"position": {
						"0.0": [-0.1, 0, -0.1],
						"0.125": [-0.1, 0, 0],
						"0.1667": [0, 0, 0]
					}
				},
				"eyelid_left": {
					"position": {
						"0.0": [0.1, 0, -0.1],
						"0.125": [0.1, 0, 0],
						"0.1667": [0, 0, 0]
					}
				}
			}
		},
		"animation.pidgey.render": {
			"loop": true,
			"bones": {
				"wing_right": {
					"rotation": [20, 90, -70],
					"position": [-0.01, -0.5, -1]
				},
				"wing_right2": {
					"rotation": [0, -45, 0]
				},
				"wing_right3": {
					"rotation": [0, 45, 0]
				},
				"wing_left": {
					"rotation": [20, -90, 70],
					"position": [0.01, -0.5, -1]
				},
				"wing_left2": {
					"rotation": [0, 45, 0]
				},
				"wing_left3": {
					"rotation": [0, -45, 0]
				},
				"pidgey": {
					"rotation": [0, -12.5, 0]
				},
				"jaw": {
					"rotation": [50, 0, 0]
				},
				"tail": {
					"rotation": [50, 0, 0]
				}
			}
		}
	}
}