{
	"credit": "Made with Blockbench",
	"texture_size": [32, 32],
	"textures": {
		"31": "block/incenseburner"
	},
	"elements": [
		{
			"from": [5, 1, 5],
			"to": [11, 4, 11],
			"faces": {
				"north": {"uv": [5.5, 3, 8.5, 4.5], "texture": "#31"},
				"east": {"uv": [5.5, 3, 8.5, 4.5], "texture": "#31"},
				"south": {"uv": [5.5, 3, 8.5, 4.5], "texture": "#31"},
				"west": {"uv": [5.5, 3, 8.5, 4.5], "texture": "#31"},
				"up": {"uv": [3, 3, 0, 0], "texture": "#31"},
				"down": {"uv": [3, 3, 0, 6], "texture": "#31"}
			}
		},
		{
			"from": [5.5, 4, 5.5],
			"to": [10.5, 5, 10.5],
			"faces": {
				"north": {"uv": [4.5, 7, 7, 7.5], "texture": "#31"},
				"east": {"uv": [4.5, 7, 7, 7.5], "texture": "#31"},
				"south": {"uv": [4.5, 7, 7, 7.5], "texture": "#31"},
				"west": {"uv": [4.5, 7, 7, 7.5], "texture": "#31"},
				"up": {"uv": [5.5, 2.5, 3, 0], "texture": "#31"},
				"down": {"uv": [5.5, 2.5, 3, 5], "texture": "#31"}
			}
		},
		{
			"from": [6, 5, 6],
			"to": [10, 6, 10],
			"faces": {
				"north": {"uv": [4.5, 7.5, 6.5, 8], "texture": "#31"},
				"east": {"uv": [4.5, 7.5, 6.5, 8], "texture": "#31"},
				"south": {"uv": [4.5, 7.5, 6.5, 8], "texture": "#31"},
				"west": {"uv": [4.5, 7.5, 6.5, 8], "texture": "#31"},
				"up": {"uv": [2, 8, 0, 6], "texture": "#31"},
				"down": {"uv": [8, 4.5, 6, 6.5], "texture": "#31"}
			}
		},
		{
			"from": [7.5, 6, 7.5],
			"to": [8.5, 7, 8.5],
			"faces": {
				"north": {"uv": [2, 6, 2.5, 6.5], "texture": "#31"},
				"east": {"uv": [2, 6, 2.5, 6.5], "texture": "#31"},
				"south": {"uv": [2.5, 6, 3, 6.5], "texture": "#31"},
				"west": {"uv": [2, 6, 2.5, 6.5], "texture": "#31"},
				"up": {"uv": [3, 6.5, 2.5, 6], "texture": "#31"},
				"down": {"uv": [7.5, 7.5, 7, 8], "texture": "#31"}
			}
		},
		{
			"from": [5.5, 0, 5.5],
			"to": [6.5, 1, 6.5],
			"faces": {
				"north": {"uv": [8, 7.5, 8.5, 8], "texture": "#31"},
				"east": {"uv": [8, 7.5, 8.5, 8], "texture": "#31"},
				"south": {"uv": [8, 7.5, 8.5, 8], "texture": "#31"},
				"west": {"uv": [8, 7.5, 8.5, 8], "texture": "#31"},
				"up": {"uv": [8.5, 8, 8, 7.5], "texture": "#31"},
				"down": {"uv": [8.5, 7.5, 8, 8], "texture": "#31"}
			}
		},
		{
			"from": [5.5, 0, 9.5],
			"to": [6.5, 1, 10.5],
			"faces": {
				"north": {"uv": [8, 7.5, 8.5, 8], "texture": "#31"},
				"east": {"uv": [8, 7.5, 8.5, 8], "texture": "#31"},
				"south": {"uv": [8, 7.5, 8.5, 8], "texture": "#31"},
				"west": {"uv": [8, 7.5, 8.5, 8], "texture": "#31"},
				"up": {"uv": [8.5, 8, 8, 7.5], "texture": "#31"},
				"down": {"uv": [8.5, 7.5, 8, 8], "texture": "#31"}
			}
		},
		{
			"from": [9.5, 0, 9.5],
			"to": [10.5, 1, 10.5],
			"faces": {
				"north": {"uv": [8, 7.5, 8.5, 8], "texture": "#31"},
				"east": {"uv": [8, 7.5, 8.5, 8], "texture": "#31"},
				"south": {"uv": [8, 7.5, 8.5, 8], "texture": "#31"},
				"west": {"uv": [8, 7.5, 8.5, 8], "texture": "#31"},
				"up": {"uv": [8.5, 8, 8, 7.5], "texture": "#31"},
				"down": {"uv": [8.5, 7.5, 8, 8], "texture": "#31"}
			}
		},
		{
			"from": [9.5, 0, 5.5],
			"to": [10.5, 1, 6.5],
			"faces": {
				"north": {"uv": [8, 7.5, 8.5, 8], "texture": "#31"},
				"east": {"uv": [8, 7.5, 8.5, 8], "texture": "#31"},
				"south": {"uv": [8, 7.5, 8.5, 8], "texture": "#31"},
				"west": {"uv": [8, 7.5, 8.5, 8], "texture": "#31"},
				"up": {"uv": [8.5, 8, 8, 7.5], "texture": "#31"},
				"down": {"uv": [8.5, 7.5, 8, 8], "texture": "#31"}
			}
		}
	],
	"display": {
		"thirdperson_righthand": {
			"translation": [-1.5, 1.5, 0]
		},
		"thirdperson_lefthand": {
			"translation": [-1.5, 1.5, 0],
			"scale": [-1, 1, 1]
		},
		"firstperson_righthand": {
			"translation": [0, 5, 0]
		},
		"firstperson_lefthand": {
			"translation": [0, 5, 0]
		},
		"ground": {
			"translation": [0, 4.5, 0]
		},
		"gui": {
			"rotation": [25, -142, 0],
			"translation": [0, 5.25, 0],
			"scale": [1.25, 1.25, 1.25]
		},
		"head": {
			"translation": [0, 19, 0],
			"scale": [1.65, 1.65, 1.65]
		},
		"fixed": {
			"translation": [0, 7, 0],
			"scale": [1.5, 1.5, 1.5]
		}
	},
	"groups": [
		{
			"name": "Incense",
			"origin": [0, 0, 0],
			"color": 0,
			"children": [0, 1, 2, 3, 4, 5, 6, 7]
		}
	]
}