{
	"format_version": "1.12.0",
	"minecraft:geometry": [
		{
			"description": {
				"identifier": "geometry.zubat",
				"texture_width": 32,
				"texture_height": 32,
				"visible_bounds_width": 3,
				"visible_bounds_height": 2.5,
				"visible_bounds_offset": [0, 0.75, 0]
			},
			"bones": [
				{
					"name": "zubat",
					"pivot": [0, 0, 0]
				},
				{
					"name": "body",
					"parent": "zubat",
					"pivot": [0, 7, 0],
					"cubes": [
						{"origin": [-2.5, 8, -1.5], "size": [5, 7, 3], "uv": [0, 16]}
					]
				},
				{
					"name": "legs",
					"parent": "body",
					"pivot": [0, 8, 0],
					"cubes": [
						{"origin": [-2.45, 1.25, 0], "size": [1, 7, 0], "pivot": [-1.95, 4.75, 0], "rotation": [0, 0, 15], "uv": [22, 0]},
						{"origin": [1.45, 1.25, 0], "size": [1, 7, 0], "pivot": [1.95, 4.75, 0], "rotation": [0, 0, -15], "uv": [22, 7]}
					]
				},
				{
					"name": "mouth",
					"parent": "body",
					"pivot": [-2, 7.5, -1.55]
				},
				{
					"name": "mouth_open",
					"parent": "mouth",
					"pivot": [0, 13, -1.55],
					"cubes": [
						{"origin": [-2, 11.5, -1.55], "size": [4, 3, 0], "uv": [24, 29]}
					]
				},
				{
					"name": "mouth_closed",
					"parent": "mouth",
					"pivot": [0, 13, -1.3],
					"cubes": [
						{"origin": [-2, 12.5, -1.3], "size": [4, 1, 0], "uv": [24, 27]}
					]
				},
				{
					"name": "rightear",
					"parent": "body",
					"pivot": [-1.5, 14.25, 0],
					"rotation": [0, 0, -40],
					"cubes": [
						{"origin": [-3, 14.25, 0], "size": [3, 4, 0], "uv": [16, 20]}
					]
				},
				{
					"name": "leftear",
					"parent": "body",
					"pivot": [1.5, 14.25, 0],
					"rotation": [0, 0, 40],
					"cubes": [
						{"origin": [0, 14.25, 0], "size": [3, 4, 0], "uv": [16, 16]}
					]
				},
				{
					"name": "rightwing",
					"parent": "body",
					"pivot": [-2.5, 11, 0],
					"cubes": [
						{"origin": [-13.5, 9.5, 0], "size": [11, 8, 0], "uv": [0, 8]}
					]
				},
				{
					"name": "leftwing",
					"parent": "body",
					"pivot": [2.5, 11, 0],
					"cubes": [
						{"origin": [2.5, 9.5, 0], "size": [11, 8, 0], "uv": [0, 0]}
					]
				}
			]
		}
	]
}