{
	"format_version": "1.12.0",
	"minecraft:geometry": [
		{
			"description": {
				"identifier": "geometry.arcanine",
				"texture_width": 128,
				"texture_height": 128,
				"visible_bounds_width": 5,
				"visible_bounds_height": 3.5,
				"visible_bounds_offset": [0, 1.25, 0]
			},
			"bones": [
				{
					"name": "arcanine",
					"pivot": [0, 0, 0]
				},
				{
					"name": "body",
					"parent": "arcanine",
					"pivot": [0, 12, -1],
					"cubes": [
						{"origin": [-4.5, 8, -9.5], "size": [9, 8, 17], "uv": [0, 0]}
					]
				},
				{
					"name": "neck",
					"parent": "body",
					"pivot": [0, 13.5, -6.75],
					"cubes": [
						{"origin": [-3.5, 11, -9.75], "size": [7, 7, 6], "uv": [22, 52]}
					]
				},
				{
					"name": "head",
					"parent": "neck",
					"pivot": [0, 18, -6.75],
					"cubes": [
						{"origin": [-4.5, 18, -11.25], "size": [9, 8, 8], "uv": [35, 0]},
						{"origin": [-3, 19.25, -15.25], "size": [6, 3, 4], "uv": [66, 34]},
						{"origin": [-3, 17, -10.25], "size": [6, 11, 10], "uv": [34, 25]},
						{"origin": [1, 18.5, -14.9], "size": [1, 1, 0], "inflate": 0.02, "pivot": [1.5, 19, -14.9], "rotation": [0, -10, 0], "uv": [0, 1]},
						{"origin": [-2, 18.5, -14.9], "size": [1, 1, 0], "inflate": 0.02, "pivot": [-1.5, 19, -14.9], "rotation": [0, 10, 0], "uv": [0, 0]}
					]
				},
				{
					"name": "eyes",
					"parent": "head",
					"pivot": [0, 23.5, -10.275]
				},
				{
					"name": "eye_left",
					"parent": "eyes",
					"pivot": [3.025, 23.5, -10.275],
					"cubes": [
						{"origin": [1.525, 22.5, -11.275], "size": [3, 2, 2], "uv": [87, 0], "mirror": true}
					]
				},
				{
					"name": "eyelid_left",
					"parent": "eye_left",
					"pivot": [2.925, 23.5, -10.175],
					"cubes": [
						{"origin": [1.425, 22.5, -11.175], "size": [3, 2, 2], "inflate": 0.01, "uv": [98, 0], "mirror": true}
					]
				},
				{
					"name": "eye_right",
					"parent": "eyes",
					"pivot": [-3.025, 23.5, -10.275],
					"cubes": [
						{"origin": [-4.525, 22.5, -11.275], "size": [3, 2, 2], "uv": [87, 0]}
					]
				},
				{
					"name": "eyelid_right",
					"parent": "eye_right",
					"pivot": [-2.925, 23.5, -10.175],
					"cubes": [
						{"origin": [-4.425, 22.5, -11.175], "size": [3, 2, 2], "inflate": 0.01, "uv": [98, 0]}
					]
				},
				{
					"name": "jaw",
					"parent": "head",
					"pivot": [0, 19.25, -10.75],
					"rotation": [-2.5, 0, 0],
					"cubes": [
						{"origin": [-2.5, 18.25, -13.75], "size": [5, 1, 3], "uv": [0, 0]},
						{"origin": [-2, 18.25, -14.75], "size": [4, 1, 1], "uv": [0, 4]}
					]
				},
				{
					"name": "ear_right",
					"parent": "head",
					"pivot": [-4.25, 23.5, -8],
					"rotation": [0, 30, 10],
					"cubes": [
						{"origin": [-11.25, 21, -8], "size": [7, 5, 0], "inflate": 0.02, "uv": [82, 31]}
					]
				},
				{
					"name": "ear_left",
					"parent": "head",
					"pivot": [4.25, 23.5, -8],
					"rotation": [0, -30, -10],
					"cubes": [
						{"origin": [4.25, 21, -8], "size": [7, 5, 0], "inflate": 0.02, "uv": [80, 4]}
					]
				},
				{
					"name": "fluff_head_front",
					"parent": "head",
					"pivot": [0, 18, -11],
					"rotation": [80, 0, 0],
					"cubes": [
						{"origin": [-5, 18, -15], "size": [10, 0, 4], "uv": [57, 0]}
					]
				},
				{
					"name": "fluff_head_bottom_right",
					"parent": "head",
					"pivot": [-4.5, 17.5, -11],
					"rotation": [0, -20, 0],
					"cubes": [
						{"origin": [-4.5, 14.5, -11], "size": [0, 6, 6], "inflate": 0.02, "uv": [61, 75]}
					]
				},
				{
					"name": "fluff_head_bottom_left",
					"parent": "head",
					"pivot": [4.5, 17.5, -11],
					"rotation": [0, 20, 0],
					"cubes": [
						{"origin": [4.5, 14.5, -11], "size": [0, 6, 6], "inflate": 0.02, "uv": [56, 54]}
					]
				},
				{
					"name": "fluff_head_top",
					"parent": "head",
					"pivot": [0, 26, -10],
					"rotation": [5, 0, 0],
					"cubes": [
						{"origin": [0, 24, -12], "size": [0, 7, 14], "inflate": 0.02, "uv": [0, 33]}
					]
				},
				{
					"name": "fluff_head_right",
					"parent": "head",
					"pivot": [-4.5, 22.25, -6.5],
					"rotation": [0, 60, 0],
					"cubes": [
						{"origin": [-10.5, 16.75, -6.5], "size": [6, 10, 0], "inflate": 0.02, "uv": [24, 84]}
					]
				},
				{
					"name": "fluff_head_left",
					"parent": "head",
					"pivot": [4.5, 22.25, -6.5],
					"rotation": [0, -60, 0],
					"cubes": [
						{"origin": [4.5, 16.75, -6.5], "size": [6, 10, 0], "inflate": 0.02, "uv": [84, 41]}
					]
				},
				{
					"name": "fluff_head_back1",
					"parent": "head",
					"pivot": [0, 25.25, -3.25],
					"rotation": [-10, 0, 0],
					"cubes": [
						{"origin": [-5, 25.25, -3.25], "size": [10, 0, 6], "inflate": 0.02, "uv": [50, 28]}
					]
				},
				{
					"name": "fluff_head_back2",
					"parent": "head",
					"pivot": [0, 23.25, -3.25],
					"rotation": [-15, 0, 0],
					"cubes": [
						{"origin": [-5.5, 23.25, -3.25], "size": [11, 0, 6], "inflate": 0.02, "uv": [28, 46]}
					]
				},
				{
					"name": "fluff_head_back3",
					"parent": "head",
					"pivot": [0, 21, -3.25],
					"rotation": [-20, 0, 0],
					"cubes": [
						{"origin": [-5.5, 21, -3.25], "size": [11, 0, 6], "inflate": 0.02, "uv": [46, 16]}
					]
				},
				{
					"name": "fluff_head_back4",
					"parent": "head",
					"pivot": [0, 18.5, -3.25],
					"rotation": [-15, 0, 0],
					"cubes": [
						{"origin": [-5, 18.5, -3.25], "size": [10, 0, 6], "inflate": 0.02, "uv": [50, 22]}
					]
				},
				{
					"name": "fluff_front",
					"parent": "neck",
					"pivot": [0, 16, -9],
					"rotation": [-2.5, 0, 0],
					"cubes": [
						{"origin": [-3.5, 9, -11], "size": [7, 7, 2], "inflate": 0.02, "uv": [20, 65]}
					]
				},
				{
					"name": "fluff_bottom",
					"parent": "fluff_front",
					"pivot": [0, 9, -10.25],
					"rotation": [15, 0, 0],
					"cubes": [
						{"origin": [-3, 4, -10.25], "size": [6, 5, 0], "inflate": 0.02, "uv": [82, 66]}
					]
				},
				{
					"name": "fluff_right",
					"parent": "fluff_front",
					"pivot": [-3.5, 12.5, -10.25],
					"rotation": [0, 30, 0],
					"cubes": [
						{"origin": [-6.5, 9, -10.25], "size": [3, 7, 0], "inflate": 0.02, "uv": [35, 0]}
					]
				},
				{
					"name": "fluff_left",
					"parent": "fluff_front",
					"pivot": [3.5, 12.5, -10.25],
					"rotation": [0, -30, 0],
					"cubes": [
						{"origin": [3.5, 9, -10.25], "size": [3, 7, 0], "inflate": 0.02, "uv": [0, 25]}
					]
				},
				{
					"name": "leg_front_right1",
					"parent": "body",
					"pivot": [-3.5, 11.75, -6.5],
					"rotation": [10, 0, 0],
					"cubes": [
						{"origin": [-5.5, 6.75, -8.5], "size": [4, 7, 4], "inflate": 0.02, "uv": [0, 68]}
					]
				},
				{
					"name": "leg_front_right2",
					"parent": "leg_front_right1",
					"pivot": [-3.5, 6.75, -5.5],
					"rotation": [-20, 0, 0],
					"cubes": [
						{"origin": [-5.5, 1, -8.5], "size": [4, 6, 4], "uv": [73, 71]}
					]
				},
				{
					"name": "leg_front_right_fur",
					"parent": "leg_front_right2",
					"pivot": [-4.48101, 3.9791, -5.53633],
					"rotation": [20, -15, 0],
					"cubes": [
						{"origin": [-4.48101, 1.4791, -5.53633], "size": [0, 5, 6], "inflate": 0.02, "uv": [73, 75]}
					]
				},
				{
					"name": "leg_front_right3",
					"parent": "leg_front_right2",
					"pivot": [-3.5, 1.5, -6],
					"rotation": [10, 0, 0],
					"cubes": [
						{"origin": [-5.5, -0.5, -9.75], "size": [4, 2, 5], "inflate": 0.02, "uv": [75, 52]}
					]
				},
				{
					"name": "leg_front_left",
					"parent": "body",
					"pivot": [3.5, 11.75, -6.5],
					"rotation": [10, 0, 0],
					"cubes": [
						{"origin": [1.5, 6.75, -8.5], "size": [4, 7, 4], "inflate": 0.02, "uv": [68, 41]}
					]
				},
				{
					"name": "leg_front_left2",
					"parent": "leg_front_left",
					"pivot": [3.5, 6.75, -5.5],
					"rotation": [-20, 0, 0],
					"cubes": [
						{"origin": [1.5, 1, -8.5], "size": [4, 6, 4], "uv": [16, 74]}
					]
				},
				{
					"name": "leg_front_left_fur",
					"parent": "leg_front_left2",
					"pivot": [4.48101, 3.9791, -5.53633],
					"rotation": [20, 15, 0],
					"cubes": [
						{"origin": [4.48101, 1.4791, -5.53633], "size": [0, 5, 6], "inflate": 0.02, "uv": [12, 78]}
					]
				},
				{
					"name": "leg_front_left3",
					"parent": "leg_front_left2",
					"pivot": [3.5, 1.5, -6],
					"rotation": [10, 0, 0],
					"cubes": [
						{"origin": [1.5, -0.5, -9.75], "size": [4, 2, 5], "inflate": 0.02, "uv": [76, 24]}
					]
				},
				{
					"name": "leg_back_right1",
					"parent": "body",
					"pivot": [-3.5, 13.25, 4],
					"rotation": [5, 0, 0],
					"cubes": [
						{"origin": [-5.5, 6.75, 0.75], "size": [4, 8, 6], "inflate": 0.02, "uv": [0, 54]}
					]
				},
				{
					"name": "leg_back_right2",
					"parent": "leg_back_right1",
					"pivot": [-3.5, 6.75, 6.25],
					"rotation": [-10, 0, 0],
					"cubes": [
						{"origin": [-5.5, 1, 3.25], "size": [4, 6, 4], "uv": [32, 74]},
						{"origin": [-6, 2, 2.75], "size": [5, 4, 5], "uv": [0, 92], "mirror": true}
					]
				},
				{
					"name": "leg_back_right_fur1",
					"parent": "leg_back_right2",
					"pivot": [-3.5, 4.01468, 6.3368],
					"rotation": [15, -2.5, 0],
					"cubes": [
						{"origin": [-5, 1.51468, 6.3368], "size": [3, 5, 5], "uv": [69, 4]}
					]
				},
				{
					"name": "leg_back_right_fur2",
					"parent": "leg_back_right_fur1",
					"pivot": [-3.5, 4.0278, 7.9293],
					"rotation": [5, 0, 0],
					"cubes": [
						{"origin": [-3.5, 0.5278, 7.9293], "size": [0, 7, 8], "inflate": 0.02, "uv": [0, 0]}
					]
				},
				{
					"name": "leg_back_right3",
					"parent": "leg_back_right2",
					"pivot": [-3.5, 1.25, 5.75],
					"rotation": [5, 0, 0],
					"cubes": [
						{"origin": [-5.5, -0.25, 2], "size": [4, 2, 5], "inflate": 0.02, "uv": [76, 59]}
					]
				},
				{
					"name": "leg_back_left",
					"parent": "body",
					"pivot": [3.5, 13.25, 4],
					"rotation": [5, 0, 0],
					"cubes": [
						{"origin": [1.5, 6.75, 0.75], "size": [4, 8, 6], "inflate": 0.02, "uv": [42, 60]}
					]
				},
				{
					"name": "leg_back_left2",
					"parent": "leg_back_left",
					"pivot": [3.5, 6.75, 6.25],
					"rotation": [-10, 0, 0],
					"cubes": [
						{"origin": [1.5, 1, 3.25], "size": [4, 6, 4], "uv": [76, 14]},
						{"origin": [1, 2, 2.75], "size": [5, 4, 5], "uv": [0, 92]}
					]
				},
				{
					"name": "leg_back_left_fur1",
					"parent": "leg_back_left2",
					"pivot": [3.5, 4.01468, 6.3368],
					"rotation": [15, 2.5, 0],
					"cubes": [
						{"origin": [2, 1.51468, 6.3368], "size": [3, 5, 5], "uv": [57, 71]}
					]
				},
				{
					"name": "leg_back_left_fur2",
					"parent": "leg_back_left_fur1",
					"pivot": [3.5, 4.0278, 7.9293],
					"rotation": [5, 0, 0],
					"cubes": [
						{"origin": [3.5, 0.5278, 7.9293], "size": [0, 7, 8], "inflate": 0.02, "uv": [25, 17]}
					]
				},
				{
					"name": "leg_back_left3",
					"parent": "leg_back_left2",
					"pivot": [3.5, 1.25, 5.75],
					"rotation": [5, 0, 0],
					"cubes": [
						{"origin": [1.5, -0.25, 2], "size": [4, 2, 5], "inflate": 0.02, "uv": [43, 79]}
					]
				},
				{
					"name": "tail1",
					"parent": "body",
					"pivot": [0, 14, 5],
					"rotation": [-25, 0, 0],
					"cubes": [
						{"origin": [-4, 13, 0.5], "size": [8, 13, 9], "uv": [0, 25]},
						{"origin": [0, 23.9922, 3.02932], "size": [0, 7, 6], "inflate": 0.02, "pivot": [0, 27.69845, 5.53115], "rotation": [-30, 0, 0], "uv": [0, 73]}
					]
				},
				{
					"name": "tail2",
					"parent": "tail1",
					"pivot": [0, 26, 9.5],
					"rotation": [-10, 0, 0],
					"cubes": [
						{"origin": [-3, 19, 9.5], "size": [6, 7, 7], "uv": [49, 46]}
					]
				},
				{
					"name": "tail3",
					"parent": "tail2",
					"pivot": [0, 19.5, 16.5],
					"rotation": [20, 0, 0],
					"cubes": [
						{"origin": [-2, 19.5, 16.5], "size": [4, 5, 6], "uv": [62, 60]}
					]
				},
				{
					"name": "tail4",
					"parent": "tail3",
					"pivot": [0, 21.9353, 21.25852],
					"rotation": [17.5, 0, 0],
					"cubes": [
						{"origin": [0, 19.4353, 21.25852], "size": [0, 5, 5], "inflate": 0.02, "uv": [0, 81]}
					]
				}
			]
		}
	]
}