{
	"format_version": "1.8.0",
	"animations": {
		"animation.wailmer.water_idle": {
			"loop": true,
			"animation_length": 1.66667,
			"bones": {
				"wailmer": {
					"rotation": [10, 0, 0],
					"position": {
						"0.0": [0, 2, 0],
						"0.8333": [0, 4, 0],
						"1.6667": [0, 2, 0]
					}
				},
				"head": {
					"rotation": [-12.5, 0, 0]
				},
				"fin_right": {
					"rotation": {
						"0.0": [0, 0, 22.5],
						"0.8333": [0, 0, 42.5],
						"1.6667": [0, 0, 22.5]
					}
				},
				"fin_left": {
					"rotation": {
						"0.0": [0, 0, -22.5],
						"0.8333": [0, 0, -42.5],
						"1.6667": [0, 0, -22.5]
					}
				},
				"jaw": {
					"rotation": {
						"0.0": [0, 0, 0],
						"0.8333": [5, 0, 0],
						"1.6667": [0, 0, 0]
					}
				}
			}
		},
		"animation.wailmer.blink": {
			"animation_length": 0.16667,
			"bones": {
				"eyelid_right": {
					"position": {
						"0.0": [0, 0, -0.1],
						"0.125": [0, 0, -0.1],
						"0.1667": [0, 0, 0]
					}
				},
				"eyelid_left": {
					"position": {
						"0.0": [0, 0, -0.1],
						"0.125": [0, 0, -0.1],
						"0.1667": [0, 0, 0]
					}
				}
			}
		}
	}
}