{
	"format_version": "1.12.0",
	"minecraft:geometry": [
		{
			"description": {
				"identifier": "geometry.pidgeot",
				"texture_width": 64,
				"texture_height": 64,
				"visible_bounds_width": 4,
				"visible_bounds_height": 3.5,
				"visible_bounds_offset": [0, 1.25, 0]
			},
			"bones": [
				{
					"name": "pidgeotto",
					"pivot": [0, 0, 0]
				},
				{
					"name": "body",
					"parent": "pidgeotto",
					"pivot": [0, 7.5, 0]
				},
				{
					"name": "torso",
					"parent": "body",
					"pivot": [0, 5.5, 1],
					"rotation": [-15, 0, 0],
					"cubes": [
						{"origin": [-3, 4, -5.25], "size": [6, 6, 6], "uv": [17, 16]},
						{"origin": [-2.5, 4.5, 0.25], "size": [5, 5, 5], "uv": [0, 23]}
					]
				},
				{
					"name": "neck",
					"parent": "torso",
					"pivot": [0, 7, -3],
					"rotation": [20, 0, 0]
				},
				{
					"name": "head_ai",
					"parent": "neck",
					"pivot": [0, 8, -3],
					"cubes": [
						{"origin": [-2.5, 6, -5.5], "size": [5, 6, 5], "uv": [17, 28]}
					]
				},
				{
					"name": "head",
					"parent": "head_ai",
					"pivot": [0, 12.5, -3],
					"rotation": [-5, 0, 0],
					"cubes": [
						{"origin": [-2.5, 10, -5.5], "size": [5, 5, 5], "inflate": 0.01, "uv": [0, 34]},
						{"origin": [-1, 11.75, -8], "size": [2, 1, 3], "inflate": 0.01, "pivot": [0, 12.25, -5.5], "rotation": [7.5, 0, 0], "uv": [42, 18]}
					]
				},
				{
					"name": "eyelid_left",
					"parent": "head",
					"pivot": [2, 13.5, -4.25],
					"cubes": [
						{"origin": [1.4, 13, -5.4], "size": [1, 1, 2], "inflate": 0.02, "uv": [0, 7]}
					]
				},
				{
					"name": "eyelid_right",
					"parent": "head",
					"pivot": [-1.75, 13.5, -4.4],
					"cubes": [
						{"origin": [-2.4, 13, -5.4], "size": [1, 1, 2], "inflate": 0.02, "uv": [0, 17]}
					]
				},
				{
					"name": "jaw",
					"parent": "head",
					"pivot": [0, 11.75, -5.5],
					"rotation": [-5, 0, 0],
					"cubes": [
						{"origin": [-1, 10.75, -7.5], "size": [2, 1, 3], "uv": [42, 0]}
					]
				},
				{
					"name": "hair",
					"parent": "head",
					"pivot": [0, 12.5, -5.61927],
					"cubes": [
						{"origin": [-2.5, 12.5, -5.61927], "size": [5, 3, 0], "uv": [42, 4]}
					]
				},
				{
					"name": "hair2",
					"parent": "hair",
					"pivot": [0, 15.5, -5.61927],
					"cubes": [
						{"origin": [-3, 15.5, -5.61927], "size": [6, 4, 0], "uv": [20, 39]}
					]
				},
				{
					"name": "hair3",
					"parent": "hair2",
					"pivot": [0, 19.5, -5.61927],
					"cubes": [
						{"origin": [-3, 19.5, -5.61927], "size": [6, 4, 0], "uv": [37, 31]}
					]
				},
				{
					"name": "hair4",
					"parent": "hair3",
					"pivot": [0, 23.5, -5.61927],
					"cubes": [
						{"origin": [-3, 23.5, -5.61927], "size": [6, 4, 0], "uv": [41, 35]}
					]
				},
				{
					"name": "hair5",
					"parent": "hair4",
					"pivot": [0, 27.5, -5.61927],
					"cubes": [
						{"origin": [-2.5, 27.5, -5.61927], "size": [5, 4, 0], "uv": [32, 42]}
					]
				},
				{
					"name": "hair6",
					"parent": "hair5",
					"pivot": [0, 31.5, -5.61927],
					"cubes": [
						{"origin": [-2.5, 31.5, -5.61927], "size": [5, 4, 0], "uv": [42, 42]}
					]
				},
				{
					"name": "tail",
					"parent": "torso",
					"pivot": [0, 6.5, 5.25],
					"cubes": [
						{"origin": [-5.5, 6.5, 5.25], "size": [11, 0, 8], "uv": [0, 0]}
					]
				},
				{
					"name": "wing_right",
					"parent": "torso",
					"pivot": [-3, 7.25, -3.5],
					"cubes": [
						{"origin": [-8, 7.25, -7], "size": [5, 0, 7], "uv": [28, 14]}
					]
				},
				{
					"name": "wing_right2",
					"parent": "wing_right",
					"pivot": [-8, 7.25, 0],
					"cubes": [
						{"origin": [-14, 7.25, -7], "size": [6, 0, 7], "inflate": 0.01, "uv": [23, 0]}
					]
				},
				{
					"name": "wing_right3",
					"parent": "wing_right2",
					"pivot": [-14, 7.25, -7],
					"cubes": [
						{"origin": [-22, 7.25, -7], "size": [8, 0, 7], "uv": [0, 15]}
					]
				},
				{
					"name": "wing_left",
					"parent": "torso",
					"pivot": [3, 7.25, -3.5],
					"cubes": [
						{"origin": [3, 7.25, -7], "size": [5, 0, 7], "uv": [28, 7]}
					]
				},
				{
					"name": "wing_left2",
					"parent": "wing_left",
					"pivot": [8, 7.25, 0],
					"cubes": [
						{"origin": [8, 7.25, -7], "size": [6, 0, 7], "inflate": 0.01, "uv": [16, 8]}
					]
				},
				{
					"name": "wing_left3",
					"parent": "wing_left2",
					"pivot": [14, 7.25, -7],
					"cubes": [
						{"origin": [14, 7.25, -7], "size": [8, 0, 7], "uv": [0, 8]}
					]
				},
				{
					"name": "leg_right",
					"parent": "body",
					"pivot": [-2.25, 5.25, 1],
					"cubes": [
						{"origin": [-3.25, 3, -1], "size": [2, 3, 4], "uv": [33, 35]}
					]
				},
				{
					"name": "leg_right2",
					"parent": "leg_right",
					"pivot": [-2.25, 3, 2],
					"cubes": [
						{"origin": [-2.75, 1, 1], "size": [1, 3, 1], "uv": [0, 10]}
					]
				},
				{
					"name": "foot_right",
					"parent": "leg_right2",
					"pivot": [-2.25, 1, 1.5],
					"cubes": [
						{"origin": [-3.25, 0, -0.5], "size": [2, 1, 3], "inflate": 0.02, "uv": [17, 43]}
					]
				},
				{
					"name": "toe_back_right",
					"parent": "foot_right",
					"pivot": [-2.25, 1, 2.5],
					"cubes": [
						{"origin": [-2.25, 0, 2.5], "size": [0, 1, 1], "inflate": 0.01, "uv": [12, 50]}
					]
				},
				{
					"name": "claw_back_right",
					"parent": "toe_back_right",
					"pivot": [-2.25, 1, 3.5],
					"cubes": [
						{"origin": [-2.25, 0, 3.5], "size": [0, 1, 1], "uv": [0, 53]}
					]
				},
				{
					"name": "toe_outer_right",
					"parent": "foot_right",
					"pivot": [-3.25, 1, -0.5],
					"cubes": [
						{"origin": [-3.25, 0, -1.5], "size": [0, 1, 1], "uv": [0, -1]}
					]
				},
				{
					"name": "toe_outer_right2",
					"parent": "toe_outer_right",
					"pivot": [-3.25, 1, -1.5],
					"cubes": [
						{"origin": [-3.25, 0, -2.5], "size": [0, 1, 1], "inflate": 0.01, "uv": [2, -1]}
					]
				},
				{
					"name": "claw_outer_right",
					"parent": "toe_outer_right2",
					"pivot": [-3.25, 1, -2.5],
					"cubes": [
						{"origin": [-3.25, 0, -3.5], "size": [0, 1, 1], "uv": [0, 21]}
					]
				},
				{
					"name": "toe_middle_right",
					"parent": "foot_right",
					"pivot": [-2.25, 1, -0.5],
					"cubes": [
						{"origin": [-2.25, 0, -1.5], "size": [0, 1, 1], "uv": [0, 0]}
					]
				},
				{
					"name": "toe_middle_right2",
					"parent": "toe_middle_right",
					"pivot": [-2.25, 1, -1.5],
					"cubes": [
						{"origin": [-2.25, 0, -2.5], "size": [0, 1, 1], "inflate": 0.01, "uv": [2, 0]}
					]
				},
				{
					"name": "claw_middle_right",
					"parent": "toe_middle_right2",
					"pivot": [-2.25, 1, -2.5],
					"cubes": [
						{"origin": [-2.25, 0, -3.5], "size": [0, 1, 1], "uv": [0, 24]}
					]
				},
				{
					"name": "toe_inner_right",
					"parent": "foot_right",
					"pivot": [-1.25, 1, -0.5],
					"cubes": [
						{"origin": [-1.25, 0, -1.5], "size": [0, 1, 1], "uv": [0, 1]}
					]
				},
				{
					"name": "toe_inner_right2",
					"parent": "toe_inner_right",
					"pivot": [-1.25, 1, -1.5],
					"cubes": [
						{"origin": [-1.25, 0, -2.5], "size": [0, 1, 1], "inflate": 0.01, "uv": [2, 1]}
					]
				},
				{
					"name": "claw_inner_right",
					"parent": "toe_inner_right2",
					"pivot": [-1.25, 1, -2.5],
					"cubes": [
						{"origin": [-1.25, 0, -3.5], "size": [0, 1, 1], "uv": [0, 20]}
					]
				},
				{
					"name": "leg_left",
					"parent": "body",
					"pivot": [2.25, 5.25, 1],
					"cubes": [
						{"origin": [1.25, 3, -1], "size": [2, 3, 4], "uv": [37, 24]}
					]
				},
				{
					"name": "leg_left2",
					"parent": "leg_left",
					"pivot": [2.25, 3, 2],
					"cubes": [
						{"origin": [1.75, 1, 1], "size": [1, 3, 1], "uv": [3, 13]}
					]
				},
				{
					"name": "foot_left",
					"parent": "leg_left2",
					"pivot": [2.25, 1, 1.5],
					"cubes": [
						{"origin": [1.25, 0, -0.5], "size": [2, 1, 3], "inflate": 0.02, "uv": [0, 44]}
					]
				},
				{
					"name": "toe_back_left",
					"parent": "foot_left",
					"pivot": [2.25, 1, 2.5],
					"cubes": [
						{"origin": [2.25, 0, 2.5], "size": [0, 1, 1], "inflate": 0.01, "uv": [11, 53]}
					]
				},
				{
					"name": "claw_back_left",
					"parent": "toe_back_left",
					"pivot": [2.25, 1, 3.5],
					"cubes": [
						{"origin": [2.25, 0, 3.5], "size": [0, 1, 1], "uv": [0, 55]}
					]
				},
				{
					"name": "toe_inner_left",
					"parent": "foot_left",
					"pivot": [1.25, 1, -0.5],
					"cubes": [
						{"origin": [1.25, 0, -1.5], "size": [0, 1, 1], "uv": [0, 2]}
					]
				},
				{
					"name": "toe_inner_left2",
					"parent": "toe_inner_left",
					"pivot": [1.25, 1, -1.5],
					"cubes": [
						{"origin": [1.25, 0, -2.5], "size": [0, 1, 1], "inflate": 0.01, "uv": [2, 2]}
					]
				},
				{
					"name": "claw_inner_left",
					"parent": "toe_inner_left2",
					"pivot": [1.25, 1, -2.5],
					"cubes": [
						{"origin": [1.25, 0, -3.5], "size": [0, 1, 1], "uv": [0, 22]}
					]
				},
				{
					"name": "toe_middle_left",
					"parent": "foot_left",
					"pivot": [2.25, 1, -0.5],
					"cubes": [
						{"origin": [2.25, 0, -1.5], "size": [0, 1, 1], "uv": [0, 3]}
					]
				},
				{
					"name": "toe_middle_left2",
					"parent": "toe_middle_left",
					"pivot": [2.25, 1, -1.5],
					"cubes": [
						{"origin": [2.25, 0, -2.5], "size": [0, 1, 1], "inflate": 0.01, "uv": [2, 3]}
					]
				},
				{
					"name": "claw_middle_left",
					"parent": "toe_middle_left2",
					"pivot": [2.25, 1, -2.5],
					"cubes": [
						{"origin": [2.25, 0, -3.5], "size": [0, 1, 1], "uv": [0, 25]}
					]
				},
				{
					"name": "toe_outer_left",
					"parent": "foot_left",
					"pivot": [3.25, 1, -0.5],
					"cubes": [
						{"origin": [3.25, 0, -1.5], "size": [0, 1, 1], "uv": [0, 4]}
					]
				},
				{
					"name": "toe_outer_left2",
					"parent": "toe_outer_left",
					"pivot": [3.25, 1, -1.5],
					"cubes": [
						{"origin": [3.25, 0, -2.5], "size": [0, 1, 1], "inflate": 0.01, "uv": [2, 4]}
					]
				},
				{
					"name": "claw_outer_left",
					"parent": "toe_outer_left2",
					"pivot": [3.25, 1, -2.5],
					"cubes": [
						{"origin": [3.25, 0, -3.5], "size": [0, 1, 1], "uv": [0, 23]}
					]
				}
			]
		}
	]
}