{
	"format_version": "1.8.0",
	"animations": {
		"animation.model.ground_idle": {
			"loop": true,
			"bones": {
				"body": {
					"rotation": [0, 0, 2.5],
					"position": [0, -9, 0]
				},
				"torso": {
					"rotation": [39.07823, 9.31667, 3.4085]
				},
				"waist": {
					"rotation": [12.5, 0, 0]
				},
				"chest": {
					"rotation": [0, -7.5, 0]
				},
				"arm_left": {
					"rotation": [-12.40933, -39.58653, 4.94661]
				},
				"arm_left2": {
					"rotation": [0, 20, 0]
				},
				"arm_right": {
					"rotation": [53.23031, -83.73207, -54.56534]
				},
				"arm_right2": {
					"rotation": [0, 0, -2.5]
				},
				"hand_right": {
					"rotation": [0, 0, 55]
				},
				"finger_index_right_end": {
					"rotation": [0, 0, 7.5]
				},
				"finger_middle_right_end": {
					"rotation": [0, 0, 5]
				},
				"finger_pinky_right_end": {
					"rotation": [-5, 0, -5]
				},
				"neck": {
					"rotation": [-12.5, 0, 0]
				},
				"tongue": {
					"rotation": [-10, -62.5, 0]
				},
				"tongue2": {
					"rotation": [0.22247, -21.7092, 9.0128]
				},
				"tongue3": {
					"rotation": [-8.51999, -4.03529, 13.06193]
				},
				"head": {
					"rotation": [-27.5, 0, 0]
				},
				"head_fin_left": {
					"rotation": [0, 0, 0]
				},
				"head_fin_right": {
					"rotation": [0, 0, 0]
				},
				"leg_left": {
					"rotation": [-36.1105, -45.64546, -35.76508]
				},
				"leg_left2": {
					"rotation": [98.84392, -4.86875, 1.61455]
				},
				"foot_left": {
					"rotation": [-40.34821, -0.65007, -1.10653]
				},
				"toe_left": {
					"rotation": [0, 0, 10]
				},
				"toe_inner_left": {
					"rotation": [2.5, 0, 7.5]
				},
				"toe_outer_left": {
					"rotation": [7.5, 0, 5]
				},
				"toe_outer_left_end": {
					"rotation": [-2.5, 0, 0]
				},
				"leg_right": {
					"rotation": [-16.90939, 6.67821, 58.11965]
				},
				"leg_right2": {
					"rotation": [66.38899, 5.02896, 6.37755]
				},
				"foot_right": {
					"rotation": [2.5, 0, -47.5]
				},
				"toe_right": {
					"rotation": [-12.0623, -4.2453, -11.76782]
				},
				"toe_inner_right_end": {
					"rotation": [-2.5, 0, -2.5]
				},
				"toe_outer_right": {
					"rotation": [2.5, 0, 0]
				},
				"toe_outer_right_end": {
					"rotation": [-2.5, 0, 0]
				},
				"tongue4": {
					"rotation": [4.25319, -29.98426, 2.78816]
				},
				"tongue5": {
					"rotation": [0, -22.5, 0]
				},
				"tongue6": {
					"rotation": [15, -15, 0]
				},
				"tongue7": {
					"rotation": [7.5, -20, 0]
				}
			}
		},
		"animation.model.blink": {
			"animation_length": 0.1667,
			"bones": {
				"inner_eyelid_left": {
					"position": {
						"0.0": [0.1, 0, 0],
						"0.125": [0.1, 0, 0],
						"0.1667": [0, 0, 0]
					}
				},
				"inner_eyelid_right": {
					"position": {
						"0.0": [-0.1, 0, 0],
						"0.125": [-0.1, 0, 0],
						"0.1667": [0, 0, 0]
					}
				}
			}
		}
	}
}