{
	"credit": "Made with Blockbench",
	"textures": {
		"5": "block/freshwater"
	},
	"elements": [
		{
			"from": [6, 0, 6],
			"to": [10, 8, 10],
			"faces": {
				"north": {"uv": [4, 2, 8, 10], "texture": "#5"},
				"east": {"uv": [0, 2, 4, 10], "texture": "#5"},
				"south": {"uv": [12, 2, 16, 10], "texture": "#5"},
				"west": {"uv": [8, 2, 12, 10], "texture": "#5"},
				"up": {"uv": [4, 14, 0, 10], "rotation": 270, "texture": "#5"},
				"down": {"uv": [12, 10, 8, 14], "rotation": 90, "texture": "#5"}
			}
		},
		{
			"from": [7, 8, 7],
			"to": [9, 10, 9],
			"faces": {
				"north": {"uv": [5, 0, 7, 2], "texture": "#5"},
				"east": {"uv": [9, 0, 11, 2], "texture": "#5"},
				"south": {"uv": [13, 0, 15, 2], "texture": "#5"},
				"west": {"uv": [1, 0, 3, 2], "texture": "#5"},
				"up": {"uv": [2, 14, 4, 16], "rotation": 270, "texture": "#5"},
				"down": {"uv": [10, 14, 12, 16], "rotation": 90, "texture": "#5"}
			}
		}
	],
	"display": {
		"thirdperson_righthand": {
			"translation": [-1.75, 1.75, 0]
		},
		"thirdperson_lefthand": {
			"translation": [-1.75, 1.75, 0]
		},
		"firstperson_righthand": {
			"translation": [0, 4.5, 0]
		},
		"firstperson_lefthand": {
			"translation": [0, 4.5, 0]
		},
		"ground": {
			"translation": [0, 4.5, 0]
		},
		"gui": {
			"rotation": [0, -90, 0],
			"translation": [0, 3.75, 0],
			"scale": [1.25, 1.25, 1.25]
		},
		"head": {
			"translation": [0, 13.5, 0]
		},
		"fixed": {
			"rotation": [0, 90, 0],
			"translation": [0, 3, 0]
		}
	},
	"groups": [
		{
			"name": "Fresh Water",
			"origin": [0, 0, 0],
			"color": 0,
			"children": [0, 1]
		}
	]
}