{
	"format_version": "1.8.0",
	"animations": {
		"animation.lucario.ground_idle": {
			"loop": true,
			"bones": {
				"waist": {
					"rotation": [5, 0, 0]
				},
				"neck": {
					"rotation": [0, 0, 0]
				},
				"arm_right": {
					"rotation": [-32.5, 0, -55]
				},
				"hand_right": {
					"rotation": [0, 0, -15]
				},
				"arm_left": {
					"rotation": [-10, 0, 55]
				},
				"hand_left": {
					"rotation": [0, 0, 15]
				},
				"tail": {
					"rotation": [5, 0, 0]
				},
				"tail2": {
					"rotation": [5, 0, 0]
				},
				"tail3": {
					"rotation": [5, 0, 0]
				},
				"leg_right": {
					"rotation": [0, 0, 5]
				},
				"leg_right2": {
					"rotation": [0, 0, -5]
				},
				"leg_left": {
					"rotation": [0, 0, -5]
				},
				"leg_left2": {
					"rotation": [0, 0, 5]
				}
			}
		},
		"animation.lucario.blink": {
			"animation_length": 0.08333,
			"bones": {
				"eyelid_right": {
					"position": {
						"0.0": [-0.1, 0, -0.1],
						"0.0833": [0, 0, 0]
					}
				},
				"eyelid_left": {
					"position": {
						"0.0": [0.1, 0, -0.1],
						"0.0833": [0, 0, 0]
					}
				}
			}
		},
		"animation.lucario.cry": {
			"animation_length": 2.5,
			"bones": {
				"jaw": {
					"rotation": {
						"0.0": [0, 0, 0],
						"0.5": [40, 0, 0],
						"2.0": [42.5, 0, 0],
						"2.5": [0, 0, 0]
					}
				},
				"neck": {
					"rotation": {
						"0.0": [0, 0, 0],
						"0.25": [-10, 0, 0],
						"2.25": [-10, 0, 0],
						"2.5": [0, 0, 0]
					}
				}
			}
		}
	}
}