{
	"format_version": "1.8.0",
	"animations": {
		"animation.rillaboom.ground_idle": {
			"loop": true,
			"bones": {
				"body": {
					"position": [0, -1, 0]
				},
				"torso3": {
					"rotation": [5, 0, 0]
				},
				"hair3": {
					"rotation": [-4.82798, -1.23612, 0.45995]
				},
				"hair_spike5": {
					"rotation": [-7.5, 0, 0]
				},
				"arm_left": {
					"rotation": [12.25294, 38.3808, 56.77896]
				},
				"arm_left3": {
					"rotation": [0, 27.5, 0]
				},
				"hand_left": {
					"rotation": [0, 0, 12.5]
				},
				"finger_left": {
					"rotation": [2.61389, 9.77218, 10.10975]
				},
				"finger_left2": {
					"rotation": [0, 0, 20]
				},
				"finger_left3": {
					"rotation": [0.32652, 2.4786, 7.50706]
				},
				"finger_left4": {
					"rotation": [0, 0, 20]
				},
				"finger_left5": {
					"rotation": [-0.32652, -2.4786, 7.50706]
				},
				"finger_left6": {
					"rotation": [0, 0, 17.5]
				},
				"finger_left7": {
					"rotation": [-1.08482, -4.88119, 12.54624]
				},
				"finger_left8": {
					"rotation": [0, 0, 12.5]
				},
				"finger_left9": {
					"rotation": [7.59001, 15.81499, 26.05573]
				},
				"finger_left10": {
					"rotation": [0, -20, 0]
				},
				"arm_right": {
					"rotation": [12.25294, -38.3808, -56.77896]
				},
				"arm_right3": {
					"rotation": [0, -27.5, 0]
				},
				"hand_right": {
					"rotation": [0, 0, -12.5]
				},
				"finger_right": {
					"rotation": [2.61389, -9.77218, -10.10975]
				},
				"finger_right2": {
					"rotation": [0, 0, -20]
				},
				"finger_right3": {
					"rotation": [0.32652, -2.4786, -7.50706]
				},
				"finger_right4": {
					"rotation": [0, 0, -20]
				},
				"finger_right5": {
					"rotation": [-0.32652, 2.4786, -7.50706]
				},
				"finger_right6": {
					"rotation": [0, 0, -17.5]
				},
				"finger_right7": {
					"rotation": [-1.08482, 4.88119, -12.54624]
				},
				"finger_right8": {
					"rotation": [0, 0, -12.5]
				},
				"finger_right9": {
					"rotation": [7.59001, -15.81499, -26.05573]
				},
				"finger_right10": {
					"rotation": [0, 20, 0]
				},
				"leg_left": {
					"rotation": [-17.5, -15, 0]
				},
				"leg_left2": {
					"rotation": [17.5, 0, 0]
				},
				"leg_right": {
					"rotation": [-17.5, 15, 0]
				},
				"leg_right2": {
					"rotation": [17.5, 0, 0]
				}
			}
		},
		"animation.rillaboom.pose": {
			"animation_length": 5.41667,
			"bones": {
				"torso": {
					"rotation": [0, 0, -2.5]
				},
				"torso2": {
					"rotation": [0, 0, 5]
				},
				"torso3": {
					"rotation": [5, 0, 5]
				},
				"head": {
					"rotation": [5.85284, -7.49921, 6.5209]
				},
				"jaw": {
					"rotation": {
						"0.0": [37.5, 0, 0],
						"5.4167": [0, 0, 0]
					}
				},
				"arm_left": {
					"rotation": [-42.5, 22.5, 35]
				},
				"arm_left3": {
					"rotation": [0, 25, 0]
				},
				"hand_left": {
					"rotation": [0, 0, 12.5]
				},
				"finger_left": {
					"rotation": [0.65426, 4.95712, 15.02832]
				},
				"finger_left2": {
					"rotation": [0, 0, 60]
				},
				"finger_left3": {
					"rotation": [0.10912, 2.49762, 7.50238]
				},
				"finger_left4": {
					"rotation": [0, 0, 55]
				},
				"finger_left5": {
					"rotation": [0, 0, 17.5]
				},
				"finger_left6": {
					"rotation": [0, 0, 45]
				},
				"finger_left7": {
					"rotation": [-0.43439, -2.462, 17.50933]
				},
				"finger_left8": {
					"rotation": [0, 0, 37.5]
				},
				"finger_left9": {
					"rotation": [6.88003, 16.1299, 48.47603]
				},
				"finger_left10": {
					"rotation": [0, -22.5, 0]
				},
				"arm_right": {
					"rotation": [-71.02365, -28.71511, 4.49901]
				},
				"arm_right3": {
					"rotation": [0, -42.5, 0]
				},
				"hand_right": {
					"rotation": [0, 0, -12.5]
				},
				"finger_right": {
					"rotation": [0.65426, -4.95712, -15.02832]
				},
				"finger_right2": {
					"rotation": [0, 0, -60]
				},
				"finger_right3": {
					"rotation": [0.10912, -2.49762, -7.50238]
				},
				"finger_right4": {
					"rotation": [0, 0, -55]
				},
				"finger_right5": {
					"rotation": [0, 0, -17.5]
				},
				"finger_right6": {
					"rotation": [0, 0, -45]
				},
				"finger_right7": {
					"rotation": [-0.43439, 2.462, -17.50933]
				},
				"finger_right8": {
					"rotation": [0, 0, -37.5]
				},
				"finger_right9": {
					"rotation": [6.88003, -16.1299, -48.47603]
				},
				"finger_right10": {
					"rotation": [0, 22.5, 0]
				},
				"leg_left": {
					"rotation": [-30, -20, -22.5],
					"position": [0, 1, 0]
				},
				"leg_left2": {
					"rotation": [40, 0, 0]
				},
				"foot_left": {
					"rotation": [0, 0, 0]
				},
				"body": {
					"position": [0, -3, 0]
				},
				"leg_right": {
					"rotation": [-30, 20, 0]
				},
				"leg_right2": {
					"rotation": [40, 0, 0]
				},
				"foot_right": {
					"rotation": [-10, 0, 0]
				},
				"hair2": {
					"rotation": [7.81546, 2.88119, -12.72208]
				},
				"hair3": {
					"rotation": [0, -7.5, 0]
				},
				"hair_spike5": {
					"rotation": [0, -12.5, 0]
				},
				"drum": {
					"rotation": [0, -7.5, 0]
				}
			}
		},
		"animation.rillaboom.blink": {
			"animation_length": 0.16667,
			"bones": {
				"eyelid_left": {
					"position": {
						"0.0": [0.1, 0, -0.1],
						"0.125": [0.1, 0, -0.1],
						"0.1667": [0, 0, 0]
					}
				},
				"eyelid_right": {
					"position": {
						"0.0": [-0.1, 0, -0.1],
						"0.125": [-0.1, 0, -0.1],
						"0.1667": [0, 0, 0]
					}
				}
			}
		},
		"animation.rillaboom.cry": {
			"animation_length": 1.5,
			"bones": {
				"neck": {
					"rotation": {
						"0.0": [0, 0, 0],
						"0.25": [10, 0, 0],
						"1.25": [10, 0, 0],
						"1.5": [0, 0, 0]
					}
				},
				"head": {
					"rotation": {
						"0.0": [0, 0, 0],
						"0.25": [-15, 0, 0],
						"1.25": [-15, 0, 0],
						"1.5": [0, 0, 0]
					}
				},
				"jaw": {
					"rotation": {
						"0.0": [0, 0, 0],
						"0.25": [25, 0, 0],
						"1.25": [25, 0, 0],
						"1.5": [0, 0, 0]
					}
				}
			}
		}
	}
}