{
	"format_version": "1.12.0",
	"minecraft:geometry": [
		{
			"description": {
				"identifier": "geometry.delphox",
				"texture_width": 128,
				"texture_height": 128,
				"visible_bounds_width": 5,
				"visible_bounds_height": 5.5,
				"visible_bounds_offset": [0, 2.25, 0]
			},
			"bones": [
				{
					"name": "delphox",
					"pivot": [0, 0, 0]
				},
				{
					"name": "body",
					"parent": "delphox",
					"pivot": [0, 0, 0]
				},
				{
					"name": "torso",
					"parent": "body",
					"pivot": [0, 23.5, -1],
					"cubes": [
						{"origin": [-2.5, 21.5, -4.25], "size": [5, 5, 6], "uv": [82, 26]}
					]
				},
				{
					"name": "chest",
					"parent": "torso",
					"pivot": [0, 28.5, 2.5],
					"cubes": [
						{"origin": [-3.5, 26.5, -5], "size": [7, 6, 7], "uv": [56, 19]},
						{"origin": [0, 27.5, 2], "size": [0, 5, 4], "pivot": [0, 27.5, 2], "rotation": [5, 0, 0], "uv": [0, 16]},
						{"origin": [-3.5, 23.5, 2], "size": [7, 3, 0], "uv": [33, 83]}
					]
				},
				{
					"name": "neck",
					"parent": "chest",
					"pivot": [0, 32.5, -1.25],
					"cubes": [
						{"origin": [-2, 31.5, -3.25], "size": [4, 7, 4], "uv": [36, 93]}
					]
				},
				{
					"name": "head",
					"parent": "neck",
					"pivot": [0, 36.1, -1.25],
					"cubes": [
						{"origin": [-4, 36.1, -6.5], "size": [8, 8, 9], "uv": [29, 9]},
						{"origin": [-4, 40.75, -6.5], "size": [2, 1, 3], "inflate": 0.01, "uv": [10, 109], "mirror": true},
						{"origin": [2, 40.75, -6.5], "size": [2, 1, 3], "inflate": 0.01, "uv": [10, 105]}
					]
				},
				{
					"name": "eye_right",
					"parent": "head",
					"pivot": [-3, 40.25, -5],
					"cubes": [
						{"origin": [-4, 39.25, -6.5], "size": [2, 2, 3], "inflate": 0.02, "uv": [0, 110], "mirror": true},
						{"origin": [-3.35, 39.25, -6.5], "size": [1, 2, 0], "inflate": 0.03, "uv": [7, 110], "mirror": true}
					]
				},
				{
					"name": "eyelid_right",
					"parent": "eye_right",
					"pivot": [-2.9, 40.75, -4.9],
					"cubes": [
						{"origin": [-3.9, 39.25, -6.4], "size": [2, 3, 3], "inflate": 0.04, "uv": [30, 105], "mirror": true}
					]
				},
				{
					"name": "eye_left",
					"parent": "head",
					"pivot": [3, 40.25, -5],
					"cubes": [
						{"origin": [2, 39.25, -6.5], "size": [2, 2, 3], "inflate": 0.02, "uv": [0, 105]},
						{"origin": [2.35, 39.25, -6.5], "size": [1, 2, 0], "inflate": 0.03, "uv": [7, 105]}
					]
				},
				{
					"name": "eyelid_left",
					"parent": "eye_left",
					"pivot": [2.9, 40.75, -4.9],
					"cubes": [
						{"origin": [1.9, 39.25, -6.4], "size": [2, 3, 3], "inflate": 0.04, "uv": [20, 105]}
					]
				},
				{
					"name": "muzzle",
					"parent": "head",
					"pivot": [0, 40.35, -6.5],
					"rotation": [5, 0, 0],
					"cubes": [
						{"origin": [-2, 36.35, -9.5], "size": [4, 4, 3], "uv": [74, 0]}
					]
				},
				{
					"name": "muzzle2",
					"parent": "muzzle",
					"pivot": [0, 37.35, -9.5],
					"rotation": [-2.5, 0, 0],
					"cubes": [
						{"origin": [-1.5, 37.35, -11.5], "size": [3, 3, 2], "uv": [0, 36]}
					]
				},
				{
					"name": "muzzle3",
					"parent": "muzzle2",
					"pivot": [0, 38.35, -11.5],
					"rotation": [-5, 0, 0],
					"cubes": [
						{"origin": [-1, 38.35, -13], "size": [2, 2, 2], "uv": [53, 0]}
					]
				},
				{
					"name": "head_ruff_right",
					"parent": "head",
					"pivot": [-4, 40.6, 0],
					"rotation": [0, 7.5, -5],
					"cubes": [
						{"origin": [-11, 36.6, 0], "size": [7, 4, 0], "uv": [78, 63]}
					]
				},
				{
					"name": "head_ruff_left",
					"parent": "head",
					"pivot": [4, 40.6, 0],
					"rotation": [0, -7.5, 5],
					"cubes": [
						{"origin": [4, 36.6, 0], "size": [7, 4, 0], "uv": [62, 38]}
					]
				},
				{
					"name": "ear_right_main",
					"parent": "head",
					"pivot": [-2, 43.85, -1.6]
				},
				{
					"name": "ear_right",
					"parent": "ear_right_main",
					"pivot": [-1.75, 43.85, -1.6],
					"rotation": [-5, -28, -15],
					"cubes": [
						{"origin": [-1.75, 42.85, -3.6], "size": [0, 15, 7], "uv": [36, 61]},
						{"origin": [-4.75, 42.85, -3.6], "size": [3, 15, 0], "pivot": [-1.75, 48.85, -3.6], "rotation": [0, -15, 0], "uv": [90, 99]}
					]
				},
				{
					"name": "ear_right_ruff_main",
					"parent": "ear_right_main",
					"pivot": [-4, 47.6, -1.85],
					"rotation": [0, -5, -7.5]
				},
				{
					"name": "ear_ruff_top_right",
					"parent": "ear_right_ruff_main",
					"pivot": [-6.25, 50.1, -2.35],
					"rotation": [0, 0, 30],
					"cubes": [
						{"origin": [-12.75, 47.1, -3.85], "size": [8, 5, 4], "uv": [77, 14]}
					]
				},
				{
					"name": "ear_ruff_top_right2",
					"parent": "ear_ruff_top_right",
					"pivot": [-12.75, 52.1, -1.35],
					"cubes": [
						{"origin": [-17.75, 47.1, -3.35], "size": [5, 5, 3], "uv": [20, 97]}
					]
				},
				{
					"name": "ear_ruff_top_right3",
					"parent": "ear_ruff_top_right2",
					"pivot": [-17.75, 47.6, -1.85],
					"cubes": [
						{"origin": [-22.75, 47.6, -1.85], "size": [6, 4, 0], "uv": [64, 103]}
					]
				},
				{
					"name": "ear_ruff_middle_right",
					"parent": "ear_right_ruff_main",
					"pivot": [-5.5, 47.6, -2.35],
					"cubes": [
						{"origin": [-12, 45.1, -3.85], "size": [8, 5, 4], "inflate": 0.01, "uv": [70, 76]}
					]
				},
				{
					"name": "ear_ruff_middle_right2",
					"parent": "ear_ruff_middle_right",
					"pivot": [-12, 45.1, -1.35],
					"cubes": [
						{"origin": [-19, 44.6, -3.35], "size": [7, 6, 3], "inflate": 0.01, "uv": [0, 93]}
					]
				},
				{
					"name": "ear_ruff_middle_right3",
					"parent": "ear_ruff_middle_right2",
					"pivot": [-19, 45.6, -1.85],
					"cubes": [
						{"origin": [-26, 45.6, -1.85], "size": [8, 5, 0], "uv": [98, 70]}
					]
				},
				{
					"name": "ear_ruff_bottom_right",
					"parent": "ear_right_ruff_main",
					"pivot": [-5.75, 45.1, -2.35],
					"rotation": [0, 0, -30],
					"cubes": [
						{"origin": [-12.25, 42.85, -3.85], "size": [8, 5, 4], "uv": [74, 67]}
					]
				},
				{
					"name": "ear_ruff_bottom_right2",
					"parent": "ear_ruff_bottom_right",
					"pivot": [-12.25, 42.85, -1.35],
					"cubes": [
						{"origin": [-17.25, 42.85, -3.35], "size": [5, 5, 3], "uv": [96, 81]}
					]
				},
				{
					"name": "ear_ruff_bottom_right3",
					"parent": "ear_ruff_bottom_right2",
					"pivot": [-17.25, 47.35, -1.85],
					"cubes": [
						{"origin": [-22.25, 43.35, -1.85], "size": [6, 4, 0], "uv": [52, 103]}
					]
				},
				{
					"name": "ear_left_main",
					"parent": "head",
					"pivot": [2, 43.85, -1.6]
				},
				{
					"name": "ear_left",
					"parent": "ear_left_main",
					"pivot": [1.75, 43.85, -1.6],
					"rotation": [-5, 28, 15],
					"cubes": [
						{"origin": [1.75, 42.85, -3.6], "size": [0, 15, 7], "uv": [22, 61]},
						{"origin": [1.75, 42.85, -3.6], "size": [3, 15, 0], "pivot": [1.75, 48.85, -3.6], "rotation": [0, 15, 0], "uv": [84, 99]}
					]
				},
				{
					"name": "ear_left_ruff_main",
					"parent": "ear_left_main",
					"pivot": [4, 47.6, -1.85],
					"rotation": [0, 5, 7.5]
				},
				{
					"name": "ear_ruff_top_left",
					"parent": "ear_left_ruff_main",
					"pivot": [6.25, 50.1, -2.35],
					"rotation": [0, 0, -30],
					"cubes": [
						{"origin": [4.75, 47.1, -3.85], "size": [8, 5, 4], "uv": [72, 38]}
					]
				},
				{
					"name": "ear_ruff_top_left2",
					"parent": "ear_ruff_top_left",
					"pivot": [12.75, 52.1, -1.35],
					"cubes": [
						{"origin": [12.75, 47.1, -3.35], "size": [5, 5, 3], "uv": [68, 95]}
					]
				},
				{
					"name": "ear_ruff_top_left3",
					"parent": "ear_ruff_top_left2",
					"pivot": [17.75, 47.6, -1.85],
					"cubes": [
						{"origin": [16.75, 47.6, -1.85], "size": [6, 4, 0], "uv": [102, 5]}
					]
				},
				{
					"name": "ear_ruff_middle_left",
					"parent": "ear_left_ruff_main",
					"pivot": [5.5, 47.6, -2.35],
					"cubes": [
						{"origin": [4, 45.1, -3.85], "size": [8, 5, 4], "inflate": 0.01, "uv": [50, 71]}
					]
				},
				{
					"name": "ear_ruff_middle_left2",
					"parent": "ear_ruff_middle_left",
					"pivot": [12, 45.1, -1.35],
					"cubes": [
						{"origin": [12, 44.6, -3.35], "size": [7, 6, 3], "inflate": 0.01, "uv": [89, 47]}
					]
				},
				{
					"name": "ear_ruff_middle_left3",
					"parent": "ear_ruff_middle_left2",
					"pivot": [19, 45.6, -1.85],
					"cubes": [
						{"origin": [18, 45.6, -1.85], "size": [8, 5, 0], "uv": [72, 47]}
					]
				},
				{
					"name": "ear_ruff_bottom_left",
					"parent": "ear_left_ruff_main",
					"pivot": [5.75, 45.1, -2.35],
					"rotation": [0, 0, 30],
					"cubes": [
						{"origin": [4.25, 42.85, -3.85], "size": [8, 5, 4], "uv": [69, 54]}
					]
				},
				{
					"name": "ear_ruff_bottom_left2",
					"parent": "ear_ruff_bottom_left",
					"pivot": [12.25, 42.85, -1.35],
					"cubes": [
						{"origin": [12.25, 42.85, -3.35], "size": [5, 5, 3], "uv": [52, 95]}
					]
				},
				{
					"name": "ear_ruff_bottom_left3",
					"parent": "ear_ruff_bottom_left2",
					"pivot": [17.25, 47.35, -1.85],
					"cubes": [
						{"origin": [16.25, 43.35, -1.85], "size": [6, 4, 0], "uv": [78, 85]}
					]
				},
				{
					"name": "arm_right",
					"parent": "chest",
					"pivot": [-3.5, 31, -1.25],
					"cubes": [
						{"origin": [-11.5, 29.5, -2.75], "size": [8, 2, 3], "inflate": 0.01, "uv": [95, 0]}
					]
				},
				{
					"name": "arm_right2",
					"parent": "arm_right",
					"pivot": [-11.5, 30.5, 0.25],
					"cubes": [
						{"origin": [-19.5, 29.5, -2.75], "size": [8, 2, 3], "uv": [94, 76]}
					]
				},
				{
					"name": "arm_right_ruff",
					"parent": "arm_right2",
					"pivot": [-18.25, 30.5, 0.25],
					"rotation": [0, 7.5, 0],
					"cubes": [
						{"origin": [-20.25, 30.5, -0.15], "size": [10, 0, 6], "uv": [56, 32]}
					]
				},
				{
					"name": "hand_right",
					"parent": "arm_right2",
					"pivot": [-19.5, 31.5, -1.25],
					"cubes": [
						{"origin": [-21.5, 29.5, -2.75], "size": [2, 2, 3], "inflate": 0.01, "uv": [48, 44]}
					]
				},
				{
					"name": "hand_stick",
					"parent": "hand_right",
					"pivot": [-26, 31, -1.5],
					"cubes": [
						{"origin": [-26.5, 30.5, -16.25], "size": [1, 1, 19], "inflate": 0.01, "uv": [88, 108]},
						{"origin": [-26.5, 30.5, -15.25], "size": [1, 1, 5], "pivot": [-26.5, 31, -10.25], "rotation": [0, 35, 0], "uv": [116, 121]},
						{"origin": [-29, 31, -28.25], "size": [6, 0, 13], "inflate": 0.01, "uv": [-13, 115]},
						{"origin": [-29, 31, -28.25], "size": [6, 0, 13], "inflate": 0.01, "pivot": [-26, 31, -21.75], "rotation": [0, 0, 90], "uv": [-13, 115]}
					]
				},
				{
					"name": "finger_index_right",
					"parent": "hand_right",
					"pivot": [-21.5, 31.5, -2.25],
					"cubes": [
						{"origin": [-23.5, 30.5, -2.75], "size": [2, 1, 1], "uv": [56, 40]}
					]
				},
				{
					"name": "finger_index_right2",
					"parent": "finger_index_right",
					"pivot": [-23.5, 31.5, -2.25],
					"cubes": [
						{"origin": [-24.5, 30.5, -2.25], "size": [1, 1, 0], "uv": [2, 0]}
					]
				},
				{
					"name": "finger_middle_right",
					"parent": "hand_right",
					"pivot": [-21.5, 31.5, -1.25],
					"cubes": [
						{"origin": [-23.5, 30.5, -1.75], "size": [2, 1, 1], "uv": [56, 61]}
					]
				},
				{
					"name": "finger_middle_right2",
					"parent": "finger_middle_right",
					"pivot": [-23.5, 31.5, -1.25],
					"cubes": [
						{"origin": [-24.5, 30.5, -1.25], "size": [1, 1, 0], "uv": [2, 2]}
					]
				},
				{
					"name": "finger_ring_right",
					"parent": "hand_right",
					"pivot": [-21.5, 31.5, -0.25],
					"cubes": [
						{"origin": [-23.5, 30.5, -0.75], "size": [2, 1, 1], "uv": [0, 57]}
					]
				},
				{
					"name": "finger_ring_right2",
					"parent": "finger_ring_right",
					"pivot": [-23.5, 31.5, -0.25],
					"cubes": [
						{"origin": [-24.5, 30.5, -0.25], "size": [1, 1, 0], "uv": [2, 1]}
					]
				},
				{
					"name": "arm_left",
					"parent": "chest",
					"pivot": [3.5, 31, -1.25],
					"cubes": [
						{"origin": [3.5, 29.5, -2.75], "size": [8, 2, 3], "inflate": 0.01, "uv": [94, 65]}
					]
				},
				{
					"name": "arm_left2",
					"parent": "arm_left",
					"pivot": [11.5, 30.5, 0.25],
					"cubes": [
						{"origin": [11.5, 29.5, -2.75], "size": [8, 2, 3], "uv": [92, 37]}
					]
				},
				{
					"name": "arm_left_ruff",
					"parent": "arm_left2",
					"pivot": [18.25, 30.5, 0.25],
					"rotation": [0, -7.5, 0],
					"cubes": [
						{"origin": [10.25, 30.5, -0.15], "size": [10, 0, 6], "uv": [21, 0]}
					]
				},
				{
					"name": "hand_left",
					"parent": "arm_left2",
					"pivot": [19.5, 31.5, -1.25],
					"cubes": [
						{"origin": [19.5, 29.5, -2.75], "size": [2, 2, 3], "inflate": 0.01, "uv": [0, 41]}
					]
				},
				{
					"name": "finger_index_left",
					"parent": "hand_left",
					"pivot": [21.5, 31.5, -2.25],
					"cubes": [
						{"origin": [21.5, 30.5, -2.75], "size": [2, 1, 1], "uv": [53, 4]}
					]
				},
				{
					"name": "finger_index_left2",
					"parent": "finger_index_left",
					"pivot": [23.5, 31.5, -2.25],
					"cubes": [
						{"origin": [23.5, 30.5, -2.25], "size": [1, 1, 0], "uv": [0, 2]}
					]
				},
				{
					"name": "finger_middle_left",
					"parent": "hand_left",
					"pivot": [21.5, 31.5, -1.25],
					"cubes": [
						{"origin": [21.5, 30.5, -1.75], "size": [2, 1, 1], "uv": [24, 44]}
					]
				},
				{
					"name": "finger_middle_left2",
					"parent": "finger_middle_left",
					"pivot": [23.5, 31.5, -1.25],
					"cubes": [
						{"origin": [23.5, 30.5, -1.25], "size": [1, 1, 0], "uv": [0, 1]}
					]
				},
				{
					"name": "finger_ring_left",
					"parent": "hand_left",
					"pivot": [21.5, 31.5, -0.25],
					"cubes": [
						{"origin": [21.5, 30.5, -0.75], "size": [2, 1, 1], "uv": [0, 9]}
					]
				},
				{
					"name": "finger_ring_left2",
					"parent": "finger_ring_left",
					"pivot": [23.5, 31.5, -0.25],
					"cubes": [
						{"origin": [23.5, 30.5, -0.25], "size": [1, 1, 0], "uv": [0, 0]}
					]
				},
				{
					"name": "chest_ruff_top_right",
					"parent": "chest",
					"pivot": [-3.5, 32.25, -1.5],
					"rotation": [0, 0, -5],
					"cubes": [
						{"origin": [-5.5, 32.25, -4], "size": [2, 0, 5], "uv": [0, 5]}
					]
				},
				{
					"name": "chest_ruff_top_left",
					"parent": "chest",
					"pivot": [3.5, 32.25, -1.5],
					"rotation": [0, 0, 5],
					"cubes": [
						{"origin": [3.5, 32.25, -4], "size": [2, 0, 5], "uv": [0, 0]}
					]
				},
				{
					"name": "chest_ruff_right_top",
					"parent": "chest",
					"pivot": [-3.5, 26.5, -1.5],
					"cubes": [
						{"origin": [-3.5, 23.5, -5], "size": [0, 3, 7], "uv": [47, 47]},
						{"origin": [-3.5, 23.5, -5], "size": [3, 3, 0], "inflate": 0.01, "uv": [28, 58]}
					]
				},
				{
					"name": "chest_ruff_right_bottom",
					"parent": "chest_ruff_right_top",
					"pivot": [-3.5, 23.5, -5],
					"rotation": [5, 0, 20],
					"cubes": [
						{"origin": [-3.5, 20.5, -4], "size": [0, 3, 6], "uv": [19, 46]}
					]
				},
				{
					"name": "chest_ruff_right_bottom2",
					"parent": "chest_ruff_right_bottom",
					"pivot": [-3.5, 20.5, -1.5],
					"rotation": [0, 0, 40],
					"cubes": [
						{"origin": [-3.5, 18.5, -3], "size": [0, 2, 4], "uv": [27, 5]}
					]
				},
				{
					"name": "chest_ruff_left_top",
					"parent": "chest",
					"pivot": [3.5, 26.5, -1.5],
					"cubes": [
						{"origin": [3.5, 23.5, -5], "size": [0, 3, 7], "uv": [19, 48]},
						{"origin": [0.5, 23.5, -5], "size": [3, 3, 0], "inflate": 0.01, "uv": [13, 66]}
					]
				},
				{
					"name": "chest_ruff_left_bottom",
					"parent": "chest_ruff_left_top",
					"pivot": [3.5, 23.5, -5],
					"rotation": [5, 0, -20],
					"cubes": [
						{"origin": [3.5, 20.5, -4], "size": [0, 3, 6], "uv": [27, 0]}
					]
				},
				{
					"name": "chest_ruff_left_bottom2",
					"parent": "chest_ruff_left_bottom",
					"pivot": [3.5, 20.5, -1.5],
					"rotation": [0, 0, -40],
					"cubes": [
						{"origin": [3.5, 18.5, -3], "size": [0, 2, 4], "uv": [27, 22]}
					]
				},
				{
					"name": "tail",
					"parent": "torso",
					"pivot": [0, 18, 2.25],
					"cubes": [
						{"origin": [-1.5, 16.5, 0.75], "size": [3, 3, 5], "uv": [96, 18]}
					]
				},
				{
					"name": "tail2",
					"parent": "tail",
					"pivot": [0, 18, 4.25],
					"cubes": [
						{"origin": [-2.5, 15.5, 4.25], "size": [5, 5, 4], "uv": [93, 56]}
					]
				},
				{
					"name": "tail3",
					"parent": "tail2",
					"pivot": [0, 18, 7.25],
					"cubes": [
						{"origin": [-3, 15, 7.25], "size": [6, 6, 8], "uv": [54, 0]}
					]
				},
				{
					"name": "tail4",
					"parent": "tail3",
					"pivot": [0, 18, 15.25],
					"cubes": [
						{"origin": [-2, 16, 14.25], "size": [4, 4, 4], "uv": [98, 9]}
					]
				},
				{
					"name": "tail5",
					"parent": "tail4",
					"pivot": [0, 16.25, 18.25],
					"cubes": [
						{"origin": [0, 16.25, 18.25], "size": [0, 4, 5], "uv": [0, 20]}
					]
				},
				{
					"name": "leg_right_outer",
					"parent": "body",
					"pivot": [-2.5, 23.5, -1],
					"cubes": [
						{"origin": [-3, 17.5, -4.75], "size": [3, 6, 7], "inflate": 0.01, "uv": [43, 80]},
						{"origin": [-3, 16.5, -4.75], "size": [2, 7, 7], "pivot": [-3, 23.5, -0.75], "rotation": [0, 0, 16.5], "uv": [22, 83]}
					]
				},
				{
					"name": "leg_right_outer2",
					"parent": "leg_right_outer",
					"pivot": [-3, 17.5, -5],
					"cubes": [
						{"origin": [-5, 10.5, -5.5], "size": [5, 7, 9], "inflate": 0.01, "uv": [0, 50]},
						{"origin": [-5, 9.5, -5.5], "size": [2, 8, 9], "pivot": [-5, 17.5, -1.5], "rotation": [0, 0, 14.25], "uv": [56, 54]},
						{"origin": [-8, 3.5, -6.25], "size": [8, 7, 11], "inflate": 0.01, "uv": [0, 0]},
						{"origin": [-9, 0.5, -6.25], "size": [9, 3, 0], "pivot": [0, 3.5, -6.25], "rotation": [-30, 5, 0], "uv": [77, 23]},
						{"origin": [-9, 0.5, 4.75], "size": [9, 3, 0], "pivot": [0, 3.5, 4.75], "rotation": [30, -5, 0], "uv": [96, 89]}
					]
				},
				{
					"name": "leg_right_outer4",
					"parent": "leg_right_outer2",
					"pivot": [-7, 3.5, -5.75],
					"rotation": [0, 7.5, 5],
					"cubes": [
						{"origin": [-13, 3.5, -5.75], "size": [7, 4, 10], "inflate": 0.01, "uv": [28, 26]},
						{"origin": [-13, 5.5, -5.75], "size": [7, 2, 10], "pivot": [-13, 7.5, -1.25], "rotation": [0, 0, -15], "uv": [24, 40]},
						{"origin": [-16, 0.5, -5.75], "size": [9, 4, 0], "pivot": [-7, 3.5, -5.75], "rotation": [-25, 10, 2.5], "uv": [54, 14]},
						{"origin": [-16, 0.5, 3.75], "size": [9, 4, 0], "pivot": [-7, 3.5, 3.75], "rotation": [25, -10, 2.5], "uv": [47, 57]}
					]
				},
				{
					"name": "leg_right_outer5",
					"parent": "leg_right_outer4",
					"pivot": [-13, 4, -4.5],
					"rotation": [0, 5, 15],
					"cubes": [
						{"origin": [-17, 4, -4.5], "size": [4, 3, 7], "uv": [0, 83]}
					]
				},
				{
					"name": "leg_right_outer6",
					"parent": "leg_right_outer5",
					"pivot": [-17, 4.5, -3.25],
					"rotation": [0, 5, 25],
					"cubes": [
						{"origin": [-20, 4.5, -3.25], "size": [3, 2, 5], "uv": [42, 1]}
					]
				},
				{
					"name": "leg_right_outer7",
					"parent": "leg_right_outer6",
					"pivot": [-20, 5.5, -2.75],
					"rotation": [0, 10, 20],
					"cubes": [
						{"origin": [-24, 5.5, -2.75], "size": [4, 0, 4], "uv": [20, 40]}
					]
				},
				{
					"name": "leg_right",
					"parent": "leg_right_outer2",
					"pivot": [-2.5, 3.5, 0.5],
					"cubes": [
						{"origin": [-3.5, 1, -0.5], "size": [2, 5, 2], "uv": [0, 50]}
					]
				},
				{
					"name": "foot_right",
					"parent": "leg_right",
					"pivot": [-2.5, 2, 0.5],
					"cubes": [
						{"origin": [-4, 0, -2.15], "size": [3, 2, 4], "inflate": 0.01, "uv": [56, 80]}
					]
				},
				{
					"name": "foot_right2",
					"parent": "foot_right",
					"pivot": [-2.5, 0, -2.15],
					"cubes": [
						{"origin": [-4, 0, -4.15], "size": [3, 2, 2], "uv": [52, 32]}
					]
				},
				{
					"name": "leg_left_outer",
					"parent": "body",
					"pivot": [4, 23.5, -1],
					"cubes": [
						{"origin": [0, 17.5, -4.75], "size": [3, 6, 7], "inflate": 0.01, "uv": [82, 0]},
						{"origin": [1, 16.5, -4.75], "size": [2, 7, 7], "pivot": [3, 23.5, -0.75], "rotation": [0, 0, -16.5], "uv": [85, 85]}
					]
				},
				{
					"name": "leg_left_outer2",
					"parent": "leg_left_outer",
					"pivot": [3, 17.5, -5],
					"cubes": [
						{"origin": [0, 10.5, -5.5], "size": [5, 7, 9], "inflate": 0.01, "uv": [28, 52]},
						{"origin": [3, 9.5, -5.5], "size": [2, 8, 9], "pivot": [5, 17.5, -1.5], "rotation": [0, 0, -14.25], "uv": [0, 66]},
						{"origin": [0, 3.5, -6.25], "size": [8, 7, 11], "inflate": 0.01, "uv": [0, 18]},
						{"origin": [0, 0.5, -6.25], "size": [9, 3, 0], "pivot": [0, 3.5, -6.25], "rotation": [-30, -5, 0], "uv": [0, 102]},
						{"origin": [0, 0.5, 4.75], "size": [9, 3, 0], "pivot": [0, 3.5, 4.75], "rotation": [30, 5, 0], "uv": [96, 101]}
					]
				},
				{
					"name": "leg_left_outer4",
					"parent": "leg_left_outer2",
					"pivot": [7, 3.5, -5.75],
					"rotation": [0, -7.5, -5],
					"cubes": [
						{"origin": [6, 3.5, -5.75], "size": [7, 4, 10], "inflate": 0.01, "uv": [0, 36]},
						{"origin": [6, 5.5, -5.75], "size": [7, 2, 10], "pivot": [13, 7.5, -1.25], "rotation": [0, 0, 15], "uv": [48, 42]},
						{"origin": [7, 0.5, -5.75], "size": [9, 4, 0], "pivot": [7, 3.5, -5.75], "rotation": [-25, -10, -2.5], "uv": [98, 26]},
						{"origin": [7, 0.5, 3.75], "size": [9, 4, 0], "pivot": [7, 3.5, 3.75], "rotation": [25, 10, -2.5], "uv": [96, 42]}
					]
				},
				{
					"name": "leg_left_outer5",
					"parent": "leg_left_outer4",
					"pivot": [13, 4, -4.5],
					"rotation": [0, -10, -15],
					"cubes": [
						{"origin": [13, 4, -4.5], "size": [4, 3, 7], "uv": [63, 85]}
					]
				},
				{
					"name": "leg_left_outer6",
					"parent": "leg_left_outer5",
					"pivot": [17, 4.5, -3.25],
					"rotation": [0, -5, -25],
					"cubes": [
						{"origin": [17, 4.5, -3.25], "size": [3, 2, 5], "uv": [98, 94]}
					]
				},
				{
					"name": "leg_left_outer7",
					"parent": "leg_left_outer6",
					"pivot": [20, 5.5, -2.75],
					"rotation": [0, -10, -20],
					"cubes": [
						{"origin": [20, 5.5, -2.75], "size": [4, 0, 4], "uv": [44, 40]}
					]
				},
				{
					"name": "leg_left",
					"parent": "leg_left_outer2",
					"pivot": [2.5, 3.5, 0.5],
					"cubes": [
						{"origin": [1.5, 1, -0.5], "size": [2, 5, 2], "uv": [0, 66]}
					]
				},
				{
					"name": "foot_left",
					"parent": "leg_left",
					"pivot": [2.5, 2, 0.5],
					"cubes": [
						{"origin": [1, 0, -2.15], "size": [3, 2, 4], "inflate": 0.01, "uv": [15, 83]}
					]
				},
				{
					"name": "foot_left2",
					"parent": "foot_left",
					"pivot": [2.5, 0, -2.15],
					"cubes": [
						{"origin": [1, 0, -4.15], "size": [3, 2, 2], "uv": [33, 86]}
					]
				}
			]
		}
	]
}