{
	"format_version": "1.8.0",
	"animations": {
		"animation.klink.idle": {
			"loop": true,
			"bones": {
				"body": {
					"rotation": [-10.03742, -4.92385, 0.87038]
				},
				"gear1": {
					"rotation": [0, 0, -22.5]
				},
				"gear2": {
					"rotation": [0, 7.5, -22.5],
					"position": [-2, -3, 0.7]
				}
			}
		}
	}
}