{
  "multipart": [
  {
      "when": {
        "north": "false",
		"south": "false",
		"east": "false",
		"west": "false"
      },
      "apply": {
        "model": "pokemoncobbled::block/oak_table_fourlegs",
        "uvlock": true
      }
    },
    {
      "when": {
        "north": "true",
		"south": "true",
		"east": "true",
		"west": "true"
      },
      "apply": {
        "model": "pokemoncobbled::block/oak_table_nolegs",
        "uvlock": true
      }
    },
    {
      "when": {
        "north": "false",
		"south": "true",
		"east": "true",
		"west": "true"
      },
      "apply": {
        "model": "pokemoncobbled::block/oak_table_nolegs",
        "uvlock": true
      }
    },
    {
      "when": {
        "north": "true",
		"south": "false",
		"east": "true",
		"west": "true"
      },
      "apply": {
        "model": "pokemoncobbled::block/oak_table_nolegs",
        "uvlock": true
      }
    },
    {
      "when": {
        "north": "true",
		"south": "true",
		"east": "false",
		"west": "true"
      },
      "apply": {
        "model": "pokemoncobbled::block/oak_table_nolegs",
        "uvlock": true
      }
    },
    {
      "when": {
        "north": "true",
		"south": "true",
		"east": "true",
		"west": "false"
      },
      "apply": {
        "model": "pokemoncobbled::block/oak_table_nolegs",
        "uvlock": true
      }
    },
    {
      "when": {
        "north": "false",
		"south": "false",
		"east": "true",
		"west": "true"
      },
      "apply": {
        "model": "pokemoncobbled::block/oak_table_nolegs",
        "uvlock": true
      }
    },
    {
      "when": {
        "north": "true",
		"south": "true",
		"east": "false",
		"west": "false"
      },
      "apply": {
        "model": "pokemoncobbled::block/oak_table_nolegs",
        "uvlock": true
      }
    },
    {
      "when": {
        "north": "true",
		"south": "false",
		"east": "false",
		"west": "false"
      },
      "apply": {
        "model": "pokemoncobbled::block/oak_table_twolegs",
        "uvlock": true,
		"y": 180
      }
    },
    {
      "when": {
        "north": "false",
		"south": "true",
		"east": "false",
		"west": "false"
      },
      "apply": {
        "model": "pokemoncobbled::block/oak_table_twolegs",
        "uvlock": true,
		"y": 0
      }
    },
    {
      "when": {
        "north": "false",
		"south": "false",
		"east": "true",
		"west": "false"
      },
      "apply": {
        "model": "pokemoncobbled::block/oak_table_twolegs",
        "uvlock": true,
		"y": 270
      }
    },
    {
      "when": {
        "north": "false",
		"south": "false",
		"east": "false",
		"west": "true"
      },
      "apply": {
        "model": "pokemoncobbled::block/oak_table_twolegs",
        "uvlock": true,
		"y": 90
      }
    },
    {
      "when": {
        "north": "false",
		"south": "true",
		"east": "false",
		"west": "true"
      },
      "apply": {
        "model": "pokemoncobbled::block/oak_table_oneleg",
        "uvlock": true,
		"y": 0
      }
    },
    {
      "when": {
        "north": "true",
		"south": "false",
		"east": "true",
		"west": "false"
      },
      "apply": {
        "model": "pokemoncobbled::block/oak_table_oneleg",
        "uvlock": true,
		"y": 180
      }
    },
    {
      "when": {
        "north": "true",
		"south": "false",
		"east": "false",
		"west": "true"
      },
      "apply": {
        "model": "pokemoncobbled::block/oak_table_oneleg",
        "uvlock": true,
		"y": 90
      }
    },
    {
      "when": {
        "north": "false",
		"south": "true",
		"east": "true",
		"west": "false"
      },
      "apply": {
        "model": "pokemoncobbled::block/oak_table_oneleg",
        "uvlock": true,
		"y": 270
      }
    }
  ]
}