{
	"format_version": "1.8.0",
	"animations": {
		"animation.snivy.idle_ground": {
			"loop": true,
			"bones": {
				"torso_bottom": {
					"rotation": [-2.5, 0, 0]
				},
				"torso_top2": {
					"rotation": [-2.5, 0, 0]
				},
				"neck_leaf_left2": {
					"rotation": [0, -5, 0]
				},
				"neck_leaf_right2": {
					"rotation": [0, 5, 0]
				},
				"arm_left": {
					"rotation": [-17.49058, -66.34466, 18.98448]
				},
				"arm_left2": {
					"rotation": [0, 5, 0]
				},
				"arm_right": {
					"rotation": [0, 70, 0]
				},
				"arm_right2": {
					"rotation": [0, -5, 0]
				},
				"head": {
					"rotation": [10, 0, 0]
				},
				"tail": {
					"rotation": [10, 0, 0]
				},
				"tail2": {
					"rotation": [14.9729, -0.36582, 0.02432]
				},
				"tail_leaf_right2": {
					"rotation": [-15, 0, 0]
				},
				"tail_leaf_middle2": {
					"rotation": [-15, 0, 0]
				},
				"tail_leaf_left2": {
					"rotation": [-12.5, 0, 0]
				},
				"leg_left": {
					"rotation": [0, -7.5, 0]
				},
				"leg_left2": {
					"rotation": [2.5, 0, 0]
				},
				"foot_left": {
					"rotation": [-2.5, 0, 0]
				},
				"leg_right": {
					"rotation": [0, 5, 0]
				},
				"vine_left": {
					"rotation": [0, 0, -90],
					"position": [-1, 0, 1]
				},
				"vine_left2": {
					"position": [-4, 0, 0]
				},
				"vine_left3": {
					"position": [-4, 0, 0]
				},
				"vine_left4": {
					"position": [-4, 0, 0]
				},
				"vine_left5": {
					"position": [-4, 0, 0]
				},
				"vine_left6": {
					"position": [-6, 0, 0]
				},
				"vine_left7": {
					"position": [-4, 0, 0]
				},
				"vine_left_end": {
					"position": [-1, 0, 0]
				},
				"vine_right": {
					"rotation": [0, 0, 90],
					"position": [1, 0, 1]
				},
				"vine_right2": {
					"position": [4, 0, 0]
				},
				"vine_right3": {
					"position": [4, 0, 0]
				},
				"vine_right4": {
					"position": [4, 0, 0]
				},
				"vine_right5": {
					"position": [4, 0, 0]
				},
				"vine_right6": {
					"position": [4, 0, 0]
				},
				"vine_right7": {
					"position": [4, 0, 0]
				},
				"vine_right_end": {
					"position": [3, 0, 0]
				}
			}
		},
		"animation.snivy.blink": {
			"animation_length": 0.16667,
			"bones": {
				"eyelid_full_left": {
					"position": {
						"0.0": [0.1, 0, 0],
						"0.125": [0.1, 0, 0],
						"0.1667": [0, 0, 0]
					}
				},
				"eyelid_full_right": {
					"position": {
						"0.0": [-0.1, 0, 0],
						"0.125": [-0.1, 0, 0],
						"0.1667": [0, 0, 0]
					}
				}
			}
		}
	}
}