{
	"format_version": "1.12.0",
	"minecraft:geometry": [
		{
			"description": {
				"identifier": "geometry.blaziken",
				"texture_width": 128,
				"texture_height": 128,
				"visible_bounds_width": 5,
				"visible_bounds_height": 4.5,
				"visible_bounds_offset": [0, 1.75, 0]
			},
			"bones": [
				{
					"name": "blaziken",
					"pivot": [0, 0, 0]
				},
				{
					"name": "body",
					"parent": "blaziken",
					"pivot": [0, 25.5, 0],
					"cubes": [
						{"origin": [-3, 18.5, -2.5], "size": [6, 14, 5], "uv": [0, 0]},
						{"origin": [-3.5, 25.5, -3], "size": [7, 7, 6], "inflate": 0.02, "uv": [16, 13]},
						{"origin": [-4.5, 26.10645, 2.7654], "size": [9, 0, 3], "inflate": 0.02, "pivot": [-0.5, 26.10645, 3.7654], "rotation": [-40, 0, 0], "uv": [37, 31]},
						{"origin": [-4.5, 26.10645, -4.7654], "size": [3, 0, 2], "inflate": 0.02, "pivot": [-0.5, 26.10645, -3.7654], "rotation": [40, 0, 0], "uv": [18, 50]},
						{"origin": [1.5, 26.10645, -4.7654], "size": [3, 0, 2], "inflate": 0.02, "pivot": [0.5, 26.10645, -3.7654], "rotation": [40, 0, 0], "uv": [48, 17]},
						{"origin": [-3.5, 28.5268, -4.38447], "size": [8, 0, 3], "inflate": 0.02, "pivot": [0, 26.10645, 0.5], "rotation": [40, 90, 0], "uv": [17, 47]},
						{"origin": [-4.5, 28.5268, -4.38447], "size": [8, 0, 3], "inflate": 0.02, "pivot": [0, 26.10645, 0.5], "rotation": [40, -90, 0], "uv": [17, 47], "mirror": true},
						{"origin": [-5, 28.25, -2], "size": [2, 4, 4], "inflate": 0.02, "uv": [60, 58]},
						{"origin": [3, 28.25, -2], "size": [2, 4, 4], "inflate": 0.02, "uv": [30, 59]},
						{"origin": [0, 16.5, -4], "size": [0, 5, 5], "inflate": 0.02, "uv": [10, 58]}
					]
				},
				{
					"name": "neck",
					"parent": "body",
					"pivot": [0, 32.5, 0],
					"cubes": [
						{"origin": [-2.5, 31.5, -2.5], "size": [5, 4, 5], "uv": [52, 17]}
					]
				},
				{
					"name": "head",
					"parent": "neck",
					"pivot": [0, 35.5, 0.25],
					"rotation": [10, 0, 0],
					"cubes": [
						{"origin": [-2.5, 35.5, -3.25], "size": [5, 5, 2], "inflate": 0.02, "uv": [40, 24]},
						{"origin": [-3, 35.5, -1.25], "size": [6, 5, 5], "inflate": 0.02, "uv": [76, 7]},
						{"origin": [-1.5, 36.75, -6], "size": [3, 3, 3], "pivot": [0, 38.25, -4.5], "rotation": [5, 0, 0], "uv": [20, 64]},
						{"origin": [-3, 37.81813, -2.93958], "size": [0, 7, 1], "pivot": [-2.5, 41.31813, -2.43958], "rotation": [-50, -40, 0], "uv": [32, 4]},
						{"origin": [-1, 36.0076, -5.66318], "size": [2, 1, 0], "pivot": [0.5, 36.2576, -5.66318], "rotation": [10, 0, 0], "uv": [0, 3]},
						{"origin": [3, 37.81813, -2.93958], "size": [0, 7, 1], "pivot": [2.5, 41.31813, -2.43958], "rotation": [-50, 40, 0], "uv": [0, 18]},
						{"origin": [-2.5, 40.5, -0.5], "size": [5, 1, 4], "uv": [83, 0]},
						{"origin": [-2.7503, 36.23, 0.76914], "size": [0, 4, 6], "pivot": [12.70451, 36.73, -0.37196], "rotation": [0, -15, 0], "uv": [22, 53]},
						{"origin": [3.84164, 36.23, -7.51333], "size": [0, 4, 6], "pivot": [19.29646, 36.73, -0.37222], "rotation": [0, 15, 0], "uv": [10, 53]}
					]
				},
				{
					"name": "eyes",
					"parent": "head",
					"pivot": [0, 38.98, -1.84673]
				},
				{
					"name": "eye_right",
					"parent": "eyes",
					"pivot": [-3.06856, 38.98, -1.60525],
					"cubes": [
						{"origin": [-2.8503, 37.98, 1.01914], "size": [0, 2, 3], "inflate": 0.02, "pivot": [12.70451, 36.73, -0.37196], "rotation": [0, -15, 0], "uv": [78, 17]}
					]
				},
				{
					"name": "eyelid_right",
					"parent": "eye_right",
					"pivot": [-2.34412, 38.98, -1.41114],
					"cubes": [
						{"origin": [-2.6003, 37.98, 1.01914], "size": [1, 2, 3], "inflate": 0.04, "pivot": [12.70451, 36.73, -0.37196], "rotation": [0, -15, 0], "uv": [80, 22]}
					]
				},
				{
					"name": "eye_left",
					"parent": "eyes",
					"pivot": [3.06856, 38.98, -1.60525],
					"cubes": [
						{"origin": [2.8503, 37.98, 1.01914], "size": [0, 2, 3], "inflate": 0.02, "pivot": [-12.70451, 36.73, -0.37196], "rotation": [0, 15, 0], "uv": [78, 17], "mirror": true}
					]
				},
				{
					"name": "eyelid_left",
					"parent": "eye_left",
					"pivot": [2.34412, 38.98, -1.41114],
					"cubes": [
						{"origin": [1.6003, 37.98, 1.01914], "size": [1, 2, 3], "inflate": 0.04, "pivot": [-12.70451, 36.73, -0.37196], "rotation": [0, 15, 0], "uv": [80, 22], "mirror": true}
					]
				},
				{
					"name": "eyelids",
					"parent": "head",
					"pivot": [0, 38.98, -1.84673]
				},
				{
					"name": "jaw",
					"parent": "head",
					"pivot": [0, 36.85, -3.25],
					"cubes": [
						{"origin": [-1, 35.85, -5.25], "size": [2, 1, 3], "uv": [67, 17]}
					]
				},
				{
					"name": "hair_right",
					"parent": "head",
					"pivot": [-2, 40.32635, 3.23481],
					"rotation": [-60, -35, 0],
					"cubes": [
						{"origin": [-4, 39.32635, 3.23481], "size": [4, 2, 7], "uv": [38, 35]},
						{"origin": [-4, 39.82635, 10.23481], "size": [4, 1, 7], "uv": [49, 9]}
					]
				},
				{
					"name": "hair_back",
					"parent": "head",
					"pivot": [0, 39.57635, 2.73481],
					"rotation": [-35, 0, 0],
					"cubes": [
						{"origin": [0, 36.57635, 2.73481], "size": [0, 5, 9], "uv": [20, 33]}
					]
				},
				{
					"name": "hair_left",
					"parent": "head",
					"pivot": [2, 40.32635, 3.23481],
					"rotation": [-60, 35, 0],
					"cubes": [
						{"origin": [0, 39.32635, 3.23481], "size": [4, 2, 7], "uv": [31, 44]},
						{"origin": [0, 39.82635, 10.23481], "size": [4, 1, 7], "uv": [48, 50]}
					]
				},
				{
					"name": "arm_right",
					"parent": "body",
					"pivot": [-5, 30, 0],
					"cubes": [
						{"origin": [-12, 29.5, -1.5], "size": [8, 2, 3], "uv": [51, 0]}
					]
				},
				{
					"name": "forearm_right",
					"parent": "arm_right",
					"pivot": [-12, 30.5, 1.25],
					"cubes": [
						{"origin": [-19, 29.5, -1.5], "size": [7, 2, 3], "inflate": 0.02, "uv": [58, 26]}
					]
				},
				{
					"name": "hand_right",
					"parent": "forearm_right",
					"pivot": [-19, 30.5, 0],
					"cubes": [
						{"origin": [-21, 29.5, -1.5], "size": [2, 2, 3], "uv": [57, 66]}
					]
				},
				{
					"name": "hand_fire_right1",
					"parent": "hand_right",
					"pivot": [-19, 31.5, 0],
					"rotation": [0, 0, 60],
					"cubes": [
						{"origin": [-19, 31.5, -2.5], "size": [0, 7, 5], "uv": [0, 54]}
					]
				},
				{
					"name": "hand_fire_right2",
					"parent": "hand_right",
					"pivot": [-19, 30.5, -1.5],
					"rotation": [0, -65, 0],
					"cubes": [
						{"origin": [-19, 27.5, -9.5], "size": [0, 6, 8], "uv": [46, 36]}
					]
				},
				{
					"name": "hand_fire_right3",
					"parent": "hand_right",
					"pivot": [-19, 30.5, 1.5],
					"rotation": [0, 65, 0],
					"cubes": [
						{"origin": [-19, 27.5, 1.5], "size": [0, 6, 8], "uv": [32, 45]}
					]
				},
				{
					"name": "finger_right1",
					"parent": "hand_right",
					"pivot": [-21, 30.75, 0],
					"rotation": [0, 0, 5],
					"cubes": [
						{"origin": [-24, 30.25, -0.5], "size": [3, 1, 1], "uv": [40, 67]},
						{"origin": [-24.90558, 30.17077, 0], "size": [1, 1, 0], "pivot": [-24.40558, 30.67077, -0.5], "rotation": [0, 0, -10], "uv": [17, 2]}
					]
				},
				{
					"name": "finger_right2",
					"parent": "hand_right",
					"pivot": [-20.75, 30.25, 1],
					"rotation": [0, 15, -10],
					"cubes": [
						{"origin": [-23.75, 29.75, 0.5], "size": [3, 1, 1], "uv": [32, 67]},
						{"origin": [-24.65558, 29.67077, 1], "size": [1, 1, 0], "pivot": [-24.15558, 30.17077, 0.5], "rotation": [0, 0, -10], "uv": [17, 1]}
					]
				},
				{
					"name": "finger_right3",
					"parent": "hand_right",
					"pivot": [-20.75, 30.25, -1],
					"rotation": [0, -15, -10],
					"cubes": [
						{"origin": [-23.75, 29.75, -1.5], "size": [3, 1, 1], "uv": [64, 66]},
						{"origin": [-24.65558, 29.67077, -1], "size": [1, 1, 0], "pivot": [-24.15558, 30.17077, -0.5], "rotation": [0, 0, -10], "uv": [17, 0]}
					]
				},
				{
					"name": "arm_left",
					"parent": "body",
					"pivot": [5, 30, 0],
					"cubes": [
						{"origin": [4, 29.5, -1.5], "size": [8, 2, 3], "uv": [17, 0]}
					]
				},
				{
					"name": "forearm_left",
					"parent": "arm_left",
					"pivot": [12, 30.5, 1.25],
					"cubes": [
						{"origin": [12, 29.5, -1.5], "size": [7, 2, 3], "inflate": 0.02, "uv": [53, 34]}
					]
				},
				{
					"name": "hand_left",
					"parent": "forearm_left",
					"pivot": [19, 30.5, 0],
					"cubes": [
						{"origin": [19, 29.5, -1.5], "size": [2, 2, 3], "uv": [63, 52]}
					]
				},
				{
					"name": "hand_fire_left1",
					"parent": "hand_left",
					"pivot": [19, 31.5, 0],
					"rotation": [0, 0, -60],
					"cubes": [
						{"origin": [19, 31.5, -2.5], "size": [0, 7, 5], "uv": [22, 0]}
					]
				},
				{
					"name": "hand_fire_left2",
					"parent": "hand_left",
					"pivot": [19, 30.5, -1.5],
					"rotation": [0, 65, 0],
					"cubes": [
						{"origin": [19, 27.5, -9.5], "size": [0, 6, 8], "uv": [16, 45]}
					]
				},
				{
					"name": "hand_fire_left3",
					"parent": "hand_left",
					"pivot": [19, 30.5, 1.5],
					"rotation": [0, -65, 0],
					"cubes": [
						{"origin": [19, 27.5, 1.5], "size": [0, 6, 8], "uv": [0, 45]}
					]
				},
				{
					"name": "finger_left1",
					"parent": "hand_left",
					"pivot": [21, 30.75, 0],
					"rotation": [0, 0, -5],
					"cubes": [
						{"origin": [21, 30.25, -0.5], "size": [3, 1, 1], "uv": [56, 60]},
						{"origin": [23.90558, 30.17077, 0], "size": [1, 1, 0], "pivot": [24.40558, 30.67077, -0.5], "rotation": [0, 0, 10], "uv": [2, 4]}
					]
				},
				{
					"name": "finger_left2",
					"parent": "hand_left",
					"pivot": [20.75, 30.25, 1],
					"rotation": [0, -15, 10],
					"cubes": [
						{"origin": [20.75, 29.75, 0.5], "size": [3, 1, 1], "uv": [38, 59]},
						{"origin": [23.65558, 29.67077, 1], "size": [1, 1, 0], "pivot": [24.15558, 30.17077, 0.5], "rotation": [0, 0, 10], "uv": [0, 4]}
					]
				},
				{
					"name": "finger_left3",
					"parent": "hand_left",
					"pivot": [20.75, 30.25, -1],
					"rotation": [0, 15, 10],
					"cubes": [
						{"origin": [20.75, 29.75, -1.5], "size": [3, 1, 1], "uv": [56, 58]},
						{"origin": [23.65558, 29.67077, -1], "size": [1, 1, 0], "pivot": [24.15558, 30.17077, -0.5], "rotation": [0, 0, 10], "uv": [3, 0]}
					]
				},
				{
					"name": "leg_right",
					"parent": "body",
					"pivot": [-2.5, 22.5, -0.25],
					"rotation": [0, 0, 15],
					"cubes": [
						{"origin": [-5, 11.5, -2.75], "size": [5, 11, 5], "inflate": 0.02, "uv": [20, 26]}
					]
				},
				{
					"name": "knee_right",
					"parent": "leg_right",
					"pivot": [-2.5, 11.5, -2.25],
					"rotation": [0, 0, -10],
					"cubes": [
						{"origin": [-5, 0.5, -2.75], "size": [5, 11, 5], "uv": [0, 21]},
						{"origin": [-2.5, 8.5, 1.5], "size": [0, 2, 3], "pivot": [-2.5, 9.5, 3.75], "rotation": [25, 0, 0], "uv": [74, -3]},
						{"origin": [-6, 0.82648, 2.15589], "size": [7, 0, 2], "inflate": 0.02, "pivot": [-3.5, 0.82648, 3.15589], "rotation": [-25, 0, 0], "uv": [58, 42]},
						{"origin": [-6, 2.26586, 1.83678], "size": [7, 0, 2], "inflate": 0.02, "pivot": [-2.5, 0.82648, -0.25], "rotation": [-25, -90, 0], "uv": [56, 31]},
						{"origin": [-6, 0.82648, -4.65589], "size": [7, 0, 2], "inflate": 0.02, "pivot": [-3.5, 0.82648, -3.65589], "rotation": [25, 0, 0], "uv": [34, 17]},
						{"origin": [-6, 2.26586, -4.33678], "size": [7, 0, 2], "inflate": 0.02, "pivot": [-2.5, 0.82648, -0.25], "rotation": [25, -90, 0], "uv": [0, 19]}
					]
				},
				{
					"name": "nail_right1",
					"parent": "knee_right",
					"pivot": [-4, 1, -2],
					"rotation": [-10, 15, 0],
					"cubes": [
						{"origin": [-4.5, -1, -2], "size": [1, 2, 1], "uv": [36, 0]}
					]
				},
				{
					"name": "nail_right2",
					"parent": "knee_right",
					"pivot": [-1, 1, -2],
					"rotation": [-10, -15, 0],
					"cubes": [
						{"origin": [-1.5, -1, -2], "size": [1, 2, 1], "uv": [20, 26]}
					]
				},
				{
					"name": "nail_right3",
					"parent": "knee_right",
					"pivot": [-2.5, 1, 1.5],
					"rotation": [10, 0, 0],
					"cubes": [
						{"origin": [-3, -1, 0.5], "size": [1, 2, 1], "uv": [0, 0]}
					]
				},
				{
					"name": "leg_left",
					"parent": "body",
					"pivot": [2.5, 22.5, -0.25],
					"rotation": [0, 0, -15],
					"cubes": [
						{"origin": [0, 11.5, -2.75], "size": [5, 11, 5], "inflate": 0.02, "uv": [0, 37]}
					]
				},
				{
					"name": "knee_left",
					"parent": "leg_left",
					"pivot": [2.5, 11.5, -2.25],
					"rotation": [0, 0, 10],
					"cubes": [
						{"origin": [0, 0.5, -2.75], "size": [5, 11, 5], "uv": [36, 0]},
						{"origin": [2.5, 8.5, 1.5], "size": [0, 2, 3], "pivot": [2.5, 9.5, 3.75], "rotation": [25, 0, 0], "uv": [74, -3], "mirror": true},
						{"origin": [-1, 0.82648, 2.15589], "size": [7, 0, 2], "inflate": 0.02, "pivot": [3.5, 0.82648, 3.15589], "rotation": [-25, 0, 0], "uv": [60, 48]},
						{"origin": [-1, 2.26586, 1.83678], "size": [7, 0, 2], "inflate": 0.02, "pivot": [2.5, 0.82648, -0.25], "rotation": [-25, 90, 0], "uv": [60, 44]},
						{"origin": [-1, 0.82648, -4.65589], "size": [7, 0, 2], "inflate": 0.02, "pivot": [3.5, 0.82648, -3.65589], "rotation": [25, 0, 0], "uv": [61, 50]},
						{"origin": [-1, 2.26586, -4.33678], "size": [7, 0, 2], "inflate": 0.02, "pivot": [2.5, 0.82648, -0.25], "rotation": [25, 90, 0], "uv": [60, 46]}
					]
				},
				{
					"name": "nail_left1",
					"parent": "knee_left",
					"pivot": [4, 1, -2],
					"rotation": [-10, -15, 0],
					"cubes": [
						{"origin": [3.5, -1, -2], "size": [1, 2, 1], "uv": [40, 34]}
					]
				},
				{
					"name": "nail_left2",
					"parent": "knee_left",
					"pivot": [1, 1, -2],
					"rotation": [-10, 15, 0],
					"cubes": [
						{"origin": [0.5, -1, -2], "size": [1, 2, 1], "uv": [15, 37]}
					]
				},
				{
					"name": "nail_left3",
					"parent": "knee_left",
					"pivot": [2.5, 1, 1.5],
					"rotation": [10, 0, 0],
					"cubes": [
						{"origin": [2, -1, 0.5], "size": [1, 2, 1], "uv": [0, 37]}
					]
				},
				{
					"name": "tail1",
					"parent": "body",
					"pivot": [0, 20.75, 2],
					"cubes": [
						{"origin": [-2, 18.25, 0.5], "size": [4, 5, 4], "inflate": 0.02, "uv": [44, 58]}
					]
				},
				{
					"name": "tail2",
					"parent": "tail1",
					"pivot": [0, 18.5, 4.5],
					"cubes": [
						{"origin": [-1.5, 18.5, 4.5], "size": [3, 4, 3], "inflate": 0.02, "uv": [64, 9]}
					]
				},
				{
					"name": "tail3",
					"parent": "tail2",
					"pivot": [0, 18.75, 7.5],
					"cubes": [
						{"origin": [-1, 18.75, 7.5], "size": [2, 3, 3], "inflate": 0.02, "uv": [0, 66]}
					]
				}
			]
		}
	]
}