{
	"format_version": "1.8.0",
	"animations": {
		"animation.smoochum.ground_idle": {
			"loop": true,
			"bones": {
				"leftarm": {
					"rotation": [0, 5, 45]
				},
				"rightarm": {
					"rotation": [0, -5, -45]
				},
				"leftleg": {
					"rotation": [0, -7.5, 0]
				},
				"rightleg": {
					"rotation": [0, 5, 0]
				}
			}
		},
		"animation.smoochum.blink": {
			"animation_length": 0.16667,
			"bones": {
				"eyelid_right": {
					"position": {
						"0.0": [0, 0, -0.1],
						"0.125": [0, 0, -0.1],
						"0.1667": [0, 0, 0]
					}
				},
				"eyelid_left": {
					"position": {
						"0.0": [0, 0, -0.1],
						"0.125": [0, 0, -0.1],
						"0.1667": [0, 0, 0]
					}
				}
			}
		}
	}
}