{
	"format_version": "1.8.0",
	"animations": {
		"animation.riolu.ground_idle": {
			"loop": true,
			"bones": {
				"tail": {
					"rotation": [10, 0, 0]
				},
				"tail2": {
					"rotation": [10, 0, 0]
				},
				"tail3": {
					"rotation": [10, 0, 0]
				},
				"arm_left": {
					"rotation": [15, -5, 40]
				},
				"arm_left2": {
					"rotation": [0, 25, 0]
				},
				"arm_right": {
					"rotation": [15, 5, -40]
				},
				"arm_right2": {
					"rotation": [0, -25, 0]
				},
				"leg_left2": {
					"rotation": [0, -7.5, 0]
				},
				"leg_right2": {
					"rotation": [0, 5, 0]
				}
			}
		},
		"animation.riolu.blink": {
			"animation_length": 0.16667,
			"bones": {
				"eyelid_left": {
					"position": {
						"0.0": [0.1, 0, -0.1],
						"0.125": [0.1, 0, -0.1],
						"0.1667": [0, 0, 0]
					}
				},
				"eyelid_right": {
					"position": {
						"0.0": [-0.1, 0, -0.1],
						"0.125": [-0.1, 0, -0.1],
						"0.1667": [0, 0, 0]
					}
				}
			}
		},
		"animation.riolu.cry": {
			"animation_length": 1.5,
			"bones": {
				"neck": {
					"rotation": {
						"0.0": [0, 0, 0],
						"0.25": [10, 0, 0],
						"1.25": [10, 0, 0],
						"1.5": [0, 0, 0]
					}
				},
				"head": {
					"rotation": {
						"0.0": [0, 0, 0],
						"0.25": [-15, 0, 0],
						"1.25": [-15, 0, 0],
						"1.5": [0, 0, 0]
					}
				},
				"jaw": {
					"rotation": {
						"0.0": [0, 0, 0],
						"0.25": [40, 0, 0],
						"1.25": [40, 0, 0],
						"1.5": [0, 0, 0]
					}
				}
			}
		}
	}
}